<?xml version='1.0' encoding='UTF-8'?>
<osm version='0.6' upload='true' generator='JOSM'>
  <node id='-1443502' timestamp='2014-06-06T08:58:40Z' visible='true' lat='41.3867794' lon='2.1222348'>
    <tag k='bicycle' v='use_sidepath' />
  </node>
  <node id='-1443501' timestamp='2014-06-06T08:58:37Z' visible='true' lat='41.386665' lon='2.1217378'>
    <tag k='bicycle' v='use_sidepath' />
  </node>
  <node id='-1443500' timestamp='2014-06-06T08:58:37Z' visible='true' lat='41.386324' lon='2.1203906'>
    <tag k='bicycle' v='use_sidepath' />
  </node>
  <node id='-1443499' timestamp='2014-06-06T08:58:38Z' visible='true' lat='41.3859541' lon='2.1189293'>
    <tag k='bicycle' v='use_sidepath' />
  </node>
  <node id='-1443498' timestamp='2014-06-06T08:58:40Z' visible='true' lat='41.3994122' lon='2.1718278'>
    <tag k='bicycle' v='use_sidepath' />
  </node>
  <node id='-1443497' timestamp='2014-06-06T08:58:41Z' visible='true' lat='41.399387' lon='2.1717194'>
    <tag k='bicycle' v='use_sidepath' />
  </node>
  <node id='-1443496' timestamp='2014-06-06T08:58:40Z' visible='true' lat='41.399059' lon='2.1704511'>
    <tag k='bicycle' v='use_sidepath' />
  </node>
  <node id='-1443495' timestamp='2014-06-06T08:58:40Z' visible='true' lat='41.3990586' lon='2.1703555'>
    <tag k='bicycle' v='use_sidepath' />
  </node>
  <node id='-1443494' timestamp='2014-06-06T08:58:36Z' visible='true' lat='41.3990533' lon='2.1701961'>
    <tag k='bicycle' v='use_sidepath' />
  </node>
  <node id='-1443493' timestamp='2011-07-19T21:44:02Z' visible='true' lat='41.3857028' lon='2.117016'>
    <tag k='highway' v='traffic_signals' />
  </node>
  <node id='-1443492' timestamp='2011-06-04T09:08:37Z' visible='true' lat='41.3864982' lon='2.1201545' />
  <node id='-1443491' timestamp='2012-08-13T11:33:28Z' visible='true' lat='41.3990702' lon='2.1695159' />
  <node id='-1443490' timestamp='2012-05-30T18:10:46Z' visible='true' lat='41.3991721' lon='2.1696845' />
  <node id='-1443489' timestamp='2014-06-06T08:58:37Z' visible='true' lat='41.3916664' lon='2.138992'>
    <tag k='bicycle' v='use_sidepath' />
  </node>
  <node id='-1443488' timestamp='2014-06-06T08:58:37Z' visible='true' lat='41.3917221' lon='2.1392099'>
    <tag k='bicycle' v='use_sidepath' />
  </node>
  <node id='-1443487' timestamp='2014-06-06T08:58:37Z' visible='true' lat='41.3923032' lon='2.1414945'>
    <tag k='bicycle' v='use_sidepath' />
  </node>
  <node id='-1443486' timestamp='2014-06-06T08:58:37Z' visible='true' lat='41.3923894' lon='2.1418549'>
    <tag k='bicycle' v='use_sidepath' />
  </node>
  <node id='-1443485' timestamp='2012-01-14T13:47:07Z' visible='true' lat='41.3928278' lon='2.1436128'>
    <tag k='bicycle' v='yes' />
    <tag k='crossing' v='traffic_signals' />
    <tag k='highway' v='crossing' />
  </node>
  <node id='-1443484' timestamp='2014-06-06T08:58:37Z' visible='true' lat='41.3928485' lon='2.1436849'>
    <tag k='bicycle' v='use_sidepath' />
  </node>
  <node id='-1443483' timestamp='2014-06-06T08:58:38Z' visible='true' lat='41.3929258' lon='2.1440292'>
    <tag k='bicycle' v='use_sidepath' />
  </node>
  <node id='-1443482' timestamp='2014-06-06T08:58:37Z' visible='true' lat='41.3878672' lon='2.1264782'>
    <tag k='bicycle' v='use_sidepath' />
  </node>
  <node id='-1443481' timestamp='2014-06-06T08:58:37Z' visible='true' lat='41.3875281' lon='2.1251484'>
    <tag k='bicycle' v='use_sidepath' />
  </node>
  <node id='-1443480' timestamp='2014-06-06T08:58:41Z' visible='true' lat='41.3873917' lon='2.1246137'>
    <tag k='bicycle' v='use_sidepath' />
  </node>
  <node id='-1443479' timestamp='2014-06-06T08:58:39Z' visible='true' lat='41.3870653' lon='2.1233435'>
    <tag k='bicycle' v='use_sidepath' />
  </node>
  <node id='-1443478' timestamp='2014-06-06T08:58:38Z' visible='true' lat='41.3924351' lon='2.1441864'>
    <tag k='bicycle' v='use_sidepath' />
    <tag k='highway' v='traffic_signals' />
  </node>
  <node id='-1443477' timestamp='2012-01-14T13:47:26Z' visible='true' lat='41.3922832' lon='2.1438792'>
    <tag k='bicycle' v='yes' />
    <tag k='crossing' v='traffic_signals' />
    <tag k='highway' v='crossing' />
  </node>
  <node id='-1443476' timestamp='2014-06-06T08:58:36Z' visible='true' lat='41.392275' lon='2.1438587'>
    <tag k='bicycle' v='use_sidepath' />
  </node>
  <node id='-1443475' timestamp='2014-06-06T08:58:39Z' visible='true' lat='41.3919847' lon='2.1427592'>
    <tag k='bicycle' v='use_sidepath' />
  </node>
  <node id='-1443474' timestamp='2014-06-06T08:58:39Z' visible='true' lat='41.3915781' lon='2.1411831'>
    <tag k='bicycle' v='use_sidepath' />
  </node>
  <node id='-1443473' timestamp='2014-06-06T08:58:38Z' visible='true' lat='41.3911701' lon='2.13951'>
    <tag k='bicycle' v='use_sidepath' />
    <tag k='highway' v='traffic_signals' />
  </node>
  <node id='-1443472' timestamp='2014-06-06T08:58:39Z' visible='true' lat='41.3906063' lon='2.1373084'>
    <tag k='bicycle' v='use_sidepath' />
  </node>
  <node id='-1443471' timestamp='2014-06-06T08:58:38Z' visible='true' lat='41.3904625' lon='2.1367203'>
    <tag k='bicycle' v='use_sidepath' />
  </node>
  <node id='-1443470' timestamp='2014-06-06T08:58:36Z' visible='true' lat='41.3985656' lon='2.1684508'>
    <tag k='bicycle' v='use_sidepath' />
  </node>
  <node id='-1443469' timestamp='2014-06-06T08:58:36Z' visible='true' lat='41.3981452' lon='2.1666924'>
    <tag k='bicycle' v='use_sidepath' />
  </node>
  <node id='-1443468' timestamp='2014-06-06T08:58:39Z' visible='true' lat='41.3981319' lon='2.1666391'>
    <tag k='bicycle' v='use_sidepath' />
  </node>
  <node id='-1443467' timestamp='2014-06-06T08:58:40Z' visible='true' lat='41.3979489' lon='2.165905'>
    <tag k='bicycle' v='use_sidepath' />
  </node>
  <node id='-1443466' timestamp='2014-06-08T15:57:22Z' visible='true' lat='41.3977344' lon='2.1650697' />
  <node id='-1443465' timestamp='2014-06-06T08:58:40Z' visible='true' lat='41.397715' lon='2.164994'>
    <tag k='bicycle' v='use_sidepath' />
  </node>
  <node id='-1443464' timestamp='2014-06-06T08:58:41Z' visible='true' lat='41.3976455' lon='2.1646712'>
    <tag k='bicycle' v='use_sidepath' />
  </node>
  <node id='-1443463' timestamp='2014-06-06T08:58:40Z' visible='true' lat='41.3979725' lon='2.1646586'>
    <tag k='bicycle' v='use_sidepath' />
  </node>
  <node id='-1443462' timestamp='2014-06-06T08:58:39Z' visible='true' lat='41.3983868' lon='2.1663268'>
    <tag k='bicycle' v='use_sidepath' />
  </node>
  <node id='-1443461' timestamp='2014-06-06T08:58:36Z' visible='true' lat='41.3983949' lon='2.1663593'>
    <tag k='bicycle' v='use_sidepath' />
  </node>
  <node id='-1443460' timestamp='2014-06-06T08:58:38Z' visible='true' lat='41.3984544' lon='2.1666106'>
    <tag k='bicycle' v='use_sidepath' />
  </node>
  <node id='-1443459' timestamp='2014-06-06T08:58:41Z' visible='true' lat='41.3988133' lon='2.1681259'>
    <tag k='bicycle' v='use_sidepath' />
  </node>
  <node id='-1443458' timestamp='2014-06-06T08:58:36Z' visible='true' lat='41.3991427' lon='2.1694073'>
    <tag k='bicycle' v='use_sidepath' />
  </node>
  <node id='-1443457' timestamp='2014-06-06T08:58:36Z' visible='true' lat='41.3992324' lon='2.1697199'>
    <tag k='bicycle' v='use_sidepath' />
  </node>
  <node id='-1443456' timestamp='2014-06-06T08:58:38Z' visible='true' lat='41.3930096' lon='2.146356'>
    <tag k='bicycle' v='use_sidepath' />
  </node>
  <node id='-1443455' timestamp='2014-06-06T08:58:37Z' visible='true' lat='41.3929121' lon='2.14595'>
    <tag k='bicycle' v='use_sidepath' />
  </node>
  <node id='-1443454' timestamp='2014-06-06T08:58:39Z' visible='true' lat='41.3973263' lon='2.1633327'>
    <tag k='bicycle' v='use_sidepath' />
  </node>
  <node id='-1443453' timestamp='2014-06-06T08:58:41Z' visible='true' lat='41.3970532' lon='2.1623157'>
    <tag k='bicycle' v='use_sidepath' />
  </node>
  <node id='-1443452' timestamp='2014-06-06T08:58:39Z' visible='true' lat='41.3968863' lon='2.161625'>
    <tag k='bicycle' v='use_sidepath' />
  </node>
  <node id='-1443451' timestamp='2011-07-28T22:58:51Z' visible='true' lat='41.3964823' lon='2.1600628'>
    <tag k='bicycle' v='yes' />
    <tag k='crossing' v='traffic_signals' />
    <tag k='highway' v='crossing' />
  </node>
  <node id='-1443450' timestamp='2014-06-06T08:58:38Z' visible='true' lat='41.3967162' lon='2.15953'>
    <tag k='bicycle' v='use_sidepath' />
  </node>
  <node id='-1443449' timestamp='2014-06-06T08:58:40Z' visible='true' lat='41.3967211' lon='2.1595574'>
    <tag k='bicycle' v='use_sidepath' />
  </node>
  <node id='-1443448' timestamp='2014-06-06T08:58:38Z' visible='true' lat='41.3967345' lon='2.1596321'>
    <tag k='bicycle' v='use_sidepath' />
  </node>
  <node id='-1443447' timestamp='2014-03-04T18:14:06Z' visible='true' lat='41.4031448' lon='2.1852593' />
  <node id='-1443446' timestamp='2014-03-04T18:14:06Z' visible='true' lat='41.4032308' lon='2.1853779' />
  <node id='-1443445' timestamp='2014-03-04T18:14:06Z' visible='true' lat='41.4033391' lon='2.1854787' />
  <node id='-1443444' timestamp='2009-10-29T22:08:55Z' visible='true' lat='41.4034441' lon='2.1855521' />
  <node id='-1443443' timestamp='2012-04-08T17:24:01Z' visible='true' lat='41.4038694' lon='2.188622' />
  <node id='-1443442' timestamp='2013-12-21T13:33:40Z' visible='true' lat='41.4038784' lon='2.1886583' />
  <node id='-1443441' timestamp='2014-06-20T22:19:51Z' visible='true' lat='41.4039595' lon='2.1889839' />
  <node id='-1443440' timestamp='2014-06-19T12:44:30Z' visible='true' lat='41.4042774' lon='2.1902627' />
  <node id='-1443439' timestamp='2011-10-01T10:34:15Z' visible='true' lat='41.3959082' lon='2.1570434' />
  <node id='-1443438' timestamp='2010-04-02T18:06:01Z' visible='true' lat='41.3868446' lon='2.1199837' />
  <node id='-1443437' timestamp='2011-09-11T12:03:58Z' visible='true' lat='41.386872' lon='2.1200895'>
    <tag k='crossing' v='uncontrolled' />
    <tag k='highway' v='crossing' />
  </node>
  <node id='-1443436' timestamp='2013-12-24T17:29:30Z' visible='true' lat='41.3873683' lon='2.1220717' />
  <node id='-1443435' timestamp='2014-06-06T08:58:39Z' visible='true' lat='41.3894432' lon='2.1327269'>
    <tag k='bicycle' v='use_sidepath' />
  </node>
  <node id='-1443434' timestamp='2014-06-06T08:58:37Z' visible='true' lat='41.3889983' lon='2.1309476'>
    <tag k='bicycle' v='use_sidepath' />
  </node>
  <node id='-1443433' timestamp='2014-06-06T08:58:39Z' visible='true' lat='41.3887382' lon='2.1299073'>
    <tag k='bicycle' v='use_sidepath' />
  </node>
  <node id='-1443432' timestamp='2014-06-06T08:58:38Z' visible='true' lat='41.3883178' lon='2.1282252'>
    <tag k='bicycle' v='use_sidepath' />
  </node>
  <node id='-1443431' timestamp='2011-06-04T09:07:50Z' visible='true' lat='41.3964018' lon='2.1593594' />
  <node id='-1443430' timestamp='2011-06-04T09:07:50Z' visible='true' lat='41.3964008' lon='2.1591705' />
  <node id='-1443429' timestamp='2011-07-28T22:58:50Z' visible='true' lat='41.3963801' lon='2.1590013'>
    <tag k='bicycle' v='yes' />
    <tag k='crossing' v='traffic_signals' />
    <tag k='highway' v='crossing' />
  </node>
  <node id='-1443428' timestamp='2014-08-25T17:21:11Z' visible='true' lat='41.4030481' lon='2.1850511' />
  <node id='-1443427' timestamp='2012-05-30T18:10:45Z' visible='true' lat='41.398995' lon='2.1697365' />
  <node id='-1443426' timestamp='2012-08-13T11:33:30Z' visible='true' lat='41.3989846' lon='2.1696124' />
  <node id='-1443425' timestamp='2010-07-20T17:21:18Z' visible='true' lat='41.4014744' lon='2.1786844' />
  <node id='-1443424' timestamp='2012-08-12T18:41:16Z' visible='true' lat='41.4016725' lon='2.1794733' />
  <node id='-1443423' timestamp='2014-09-01T11:54:17Z' visible='true' lat='41.4018547' lon='2.1799915' />
  <node id='-1443422' timestamp='2014-06-21T15:25:21Z' visible='true' lat='41.4018961' lon='2.1801091' />
  <node id='-1443421' timestamp='2014-09-01T11:54:17Z' visible='true' lat='41.4019048' lon='2.1801519' />
  <node id='-1443420' timestamp='2009-09-23T11:56:45Z' visible='true' lat='41.4022281' lon='2.1817465' />
  <node id='-1443419' timestamp='2009-03-30T21:29:58Z' visible='true' lat='41.4024034' lon='2.1825411' />
  <node id='-1443418' timestamp='2011-05-28T12:14:36Z' visible='true' lat='41.4024425' lon='2.1827077' />
  <node id='-1443417' timestamp='2014-02-25T21:03:02Z' visible='true' lat='41.4026323' lon='2.1834034'>
    <tag k='crossing' v='traffic_signals' />
  </node>
  <node id='-1443416' timestamp='2014-09-01T10:47:04Z' visible='true' lat='41.3967564' lon='2.159712'>
    <tag k='bicycle' v='use_sidepath' />
  </node>
  <node id='-1443415' timestamp='2011-07-28T22:59:07Z' visible='true' lat='41.3968031' lon='2.1599122'>
    <tag k='bicycle' v='yes' />
    <tag k='crossing' v='traffic_signals' />
    <tag k='highway' v='crossing' />
  </node>
  <node id='-1443414' timestamp='2014-06-06T08:58:40Z' visible='true' lat='41.3971168' lon='2.161299'>
    <tag k='bicycle' v='use_sidepath' />
  </node>
  <node id='-1443413' timestamp='2014-06-06T08:58:40Z' visible='true' lat='41.3975654' lon='2.1629961'>
    <tag k='bicycle' v='use_sidepath' />
  </node>
  <node id='-1443412' timestamp='2011-06-04T09:07:52Z' visible='true' lat='41.3965217' lon='2.1597208' />
  <node id='-1443411' timestamp='2011-10-01T10:34:16Z' visible='true' lat='41.3960342' lon='2.1569326' />
  <node id='-1443410' timestamp='2011-06-04T09:08:19Z' visible='true' lat='41.396442' lon='2.1584916' />
  <node id='-1443409' timestamp='2011-07-28T22:58:58Z' visible='true' lat='41.3965587' lon='2.1589231'>
    <tag k='bicycle' v='yes' />
    <tag k='crossing' v='traffic_signals' />
    <tag k='highway' v='crossing' />
  </node>
  <node id='-1443408' timestamp='2014-09-01T10:25:53Z' visible='true' lat='41.3964472' lon='2.1598497'>
    <tag k='bicycle' v='use_sidepath' />
  </node>
  <node id='-1443407' timestamp='2011-06-04T09:07:52Z' visible='true' lat='41.3964563' lon='2.1596986' />
  <node id='-1443406' timestamp='2014-05-22T10:28:48Z' visible='true' lat='41.3992945' lon='2.1703553' />
  <node id='-1443405' timestamp='2012-05-30T18:10:46Z' visible='true' lat='41.3992627' lon='2.1701361' />
  <node id='-1443404' timestamp='2011-12-06T13:53:34Z' visible='true' lat='41.3955716' lon='2.1556427' />
  <node id='-1443403' timestamp='2014-06-06T08:58:40Z' visible='true' lat='41.3876203' lon='2.1230448'>
    <tag k='bicycle' v='use_sidepath' />
  </node>
  <node id='-1443402' timestamp='2014-06-06T08:58:40Z' visible='true' lat='41.3877362' lon='2.1234502'>
    <tag k='bicycle' v='use_sidepath' />
  </node>
  <node id='-1443401' timestamp='2014-06-06T08:58:39Z' visible='true' lat='41.3881531' lon='2.1251845'>
    <tag k='bicycle' v='use_sidepath' />
  </node>
  <node id='-1443400' timestamp='2014-06-06T08:58:39Z' visible='true' lat='41.3885856' lon='2.1268696'>
    <tag k='bicycle' v='use_sidepath' />
  </node>
  <node id='-1443399' timestamp='2013-12-06T17:29:43Z' visible='true' lat='41.4020656' lon='2.1819948' />
  <node id='-1443398' timestamp='2013-12-06T17:29:42Z' visible='true' lat='41.4016634' lon='2.1803223' />
  <node id='-1443397' timestamp='2014-06-21T15:25:21Z' visible='true' lat='41.4015101' lon='2.1795362' />
  <node id='-1443396' timestamp='2014-04-12T14:17:27Z' visible='true' lat='41.401268' lon='2.1788156' />
  <node id='-1443395' timestamp='2013-12-06T17:29:43Z' visible='true' lat='41.4012189' lon='2.1786465' />
  <node id='-1443394' timestamp='2013-12-06T17:29:43Z' visible='true' lat='41.4011738' lon='2.1784519' />
  <node id='-1443393' timestamp='2013-12-06T17:29:43Z' visible='true' lat='41.4008375' lon='2.1768333' />
  <node id='-1443392' timestamp='2013-12-06T17:29:43Z' visible='true' lat='41.400656' lon='2.1761777' />
  <node id='-1443391' timestamp='2014-09-01T11:54:17Z' visible='true' lat='41.4004079' lon='2.1750207' />
  <node id='-1443390' timestamp='2014-09-01T11:54:17Z' visible='true' lat='41.4004027' lon='2.1749988' />
  <node id='-1443389' timestamp='2011-06-04T09:07:50Z' visible='true' lat='41.3966462' lon='2.1596559' />
  <node id='-1443388' timestamp='2011-07-28T22:58:48Z' visible='true' lat='41.3966901' lon='2.1599792'>
    <tag k='bicycle' v='yes' />
    <tag k='crossing' v='traffic_signals' />
    <tag k='highway' v='crossing' />
  </node>
  <node id='-1443387' timestamp='2011-07-28T22:59:07Z' visible='true' lat='41.3966141' lon='2.1591286' />
  <node id='-1443386' timestamp='2014-06-06T08:58:36Z' visible='true' lat='41.3966858' lon='2.1594305'>
    <tag k='bicycle' v='use_sidepath' />
  </node>
  <node id='-1443385' timestamp='2011-06-04T09:07:53Z' visible='true' lat='41.396338' lon='2.1586581' />
  <node id='-1443384' timestamp='2011-07-28T22:58:50Z' visible='true' lat='41.3964461' lon='2.1589696'>
    <tag k='bicycle' v='yes' />
    <tag k='crossing' v='traffic_signals' />
    <tag k='highway' v='crossing' />
  </node>
  <node id='-1443383' timestamp='2011-06-04T09:07:50Z' visible='true' lat='41.3965548' lon='2.1592827' />
  <node id='-1443382' timestamp='2014-06-06T08:58:40Z' visible='true' lat='41.3939478' lon='2.1485786'>
    <tag k='bicycle' v='use_sidepath' />
  </node>
  <node id='-1443381' timestamp='2014-06-06T08:58:41Z' visible='true' lat='41.3941769' lon='2.1494392'>
    <tag k='bicycle' v='use_sidepath' />
  </node>
  <node id='-1443380' timestamp='2014-06-06T08:58:39Z' visible='true' lat='41.3945928' lon='2.1511144'>
    <tag k='bicycle' v='use_sidepath' />
  </node>
  <node id='-1443379' timestamp='2014-06-06T08:58:36Z' visible='true' lat='41.3946057' lon='2.1511712'>
    <tag k='bicycle' v='use_sidepath' />
  </node>
  <node id='-1443378' timestamp='2014-06-06T08:58:39Z' visible='true' lat='41.3950881' lon='2.1531631'>
    <tag k='bicycle' v='use_sidepath' />
  </node>
  <node id='-1443377' timestamp='2014-06-06T08:58:39Z' visible='true' lat='41.3954407' lon='2.1545358'>
    <tag k='bicycle' v='use_sidepath' />
  </node>
  <node id='-1443376' timestamp='2014-06-06T08:58:41Z' visible='true' lat='41.395707' lon='2.1555544'>
    <tag k='bicycle' v='use_sidepath' />
  </node>
  <node id='-1443375' timestamp='2014-06-06T08:58:41Z' visible='true' lat='41.3957481' lon='2.1556996'>
    <tag k='bicycle' v='use_sidepath' />
  </node>
  <node id='-1443374' timestamp='2013-10-02T17:26:47Z' visible='true' lat='41.3999775' lon='2.1733071' />
  <node id='-1443373' timestamp='2011-12-06T14:40:16Z' visible='true' lat='41.399982' lon='2.1732471' />
  <node id='-1443372' timestamp='2012-05-30T18:10:46Z' visible='true' lat='41.399897' lon='2.1729174' />
  <node id='-1443371' timestamp='2013-10-02T17:26:47Z' visible='true' lat='41.3995691' lon='2.1716214' />
  <node id='-1443370' timestamp='2012-05-30T18:10:45Z' visible='true' lat='41.3995425' lon='2.1715241' />
  <node id='-1443369' timestamp='2013-09-18T11:53:55Z' visible='true' lat='41.3888784' lon='2.1279781' />
  <node id='-1443368' timestamp='2011-07-26T18:35:15Z' visible='true' lat='41.3889644' lon='2.1283426' />
  <node id='-1443367' timestamp='2010-04-09T14:30:13Z' visible='true' lat='41.3892218' lon='2.1293912' />
  <node id='-1443366' timestamp='2011-07-26T22:24:51Z' visible='true' lat='41.3893344' lon='2.1298402' />
  <node id='-1443365' timestamp='2011-07-26T22:24:51Z' visible='true' lat='41.3895019' lon='2.1305078' />
  <node id='-1443364' timestamp='2012-07-28T02:49:06Z' visible='true' lat='41.3895574' lon='2.1307264' />
  <node id='-1443363' timestamp='2012-07-28T02:49:08Z' visible='true' lat='41.3899369' lon='2.132223' />
  <node id='-1443362' timestamp='2012-07-28T02:49:06Z' visible='true' lat='41.3899898' lon='2.1324386' />
  <node id='-1443361' timestamp='2014-08-31T23:09:48Z' visible='true' lat='41.3900039' lon='2.1324945' />
  <node id='-1443360' timestamp='2012-01-13T21:24:23Z' visible='true' lat='41.3900333' lon='2.132611' />
  <node id='-1443359' timestamp='2012-01-13T21:24:23Z' visible='true' lat='41.3906568' lon='2.1350765' />
  <node id='-1443358' timestamp='2012-06-14T09:30:57Z' visible='true' lat='41.3910671' lon='2.1366883' />
  <node id='-1443357' timestamp='2011-10-24T18:59:21Z' visible='true' lat='41.3911021' lon='2.1368022' />
  <node id='-1443356' timestamp='2014-06-06T08:58:38Z' visible='true' lat='41.3913687' lon='2.1378789'>
    <tag k='bicycle' v='use_sidepath' />
  </node>
  <node id='-1443355' timestamp='2014-09-01T11:54:17Z' visible='true' lat='41.4002776' lon='2.1751578' />
  <node id='-1443354' timestamp='2014-06-06T08:58:40Z' visible='true' lat='41.3998258' lon='2.1735081'>
    <tag k='bicycle' v='use_sidepath' />
  </node>
  <node id='-1443353' timestamp='2014-06-06T08:58:37Z' visible='true' lat='41.3998327' lon='2.1734687'>
    <tag k='bicycle' v='use_sidepath' />
  </node>
  <node id='-1443352' timestamp='2014-06-06T08:58:40Z' visible='true' lat='41.3995882' lon='2.1725066'>
    <tag k='bicycle' v='use_sidepath' />
  </node>
  <node id='-1443351' timestamp='2012-12-29T13:59:14Z' visible='true' lat='41.3928469' lon='2.1449195' />
  <node id='-1443350' timestamp='2012-01-14T13:47:26Z' visible='true' lat='41.3928933' lon='2.1451067'>
    <tag k='bicycle' v='yes' />
    <tag k='crossing' v='traffic_signals' />
    <tag k='highway' v='crossing' />
  </node>
  <node id='-1443349' timestamp='2012-01-14T13:47:07Z' visible='true' lat='41.3929059' lon='2.1451471'>
    <tag k='crossing' v='traffic_signals' />
    <tag k='highway' v='crossing' />
  </node>
  <node id='-1443348' timestamp='2011-07-15T16:35:56Z' visible='true' lat='41.3930305' lon='2.1456528' />
  <node id='-1443347' timestamp='2011-06-04T09:08:19Z' visible='true' lat='41.3889515' lon='2.1298444' />
  <node id='-1443346' timestamp='2011-06-04T09:08:43Z' visible='true' lat='41.3895687' lon='2.13228' />
  <node id='-1443345' timestamp='2011-06-04T09:08:09Z' visible='true' lat='41.3913722' lon='2.1393685' />
  <node id='-1443344' timestamp='2012-01-14T13:47:26Z' visible='true' lat='41.3925198' lon='2.1437687'>
    <tag k='bicycle' v='yes' />
    <tag k='crossing' v='traffic_signals' />
    <tag k='highway' v='crossing' />
  </node>
  <node id='-1443343' timestamp='2012-07-28T02:49:07Z' visible='true' lat='41.3925953' lon='2.1440165' />
  <node id='-1443342' timestamp='2011-06-04T09:07:52Z' visible='true' lat='41.3949564' lon='2.1532257' />
  <node id='-1443341' timestamp='2012-05-30T18:21:04Z' visible='true' lat='41.3953259' lon='2.154672' />
  <node id='-1443340' timestamp='2012-05-30T18:10:45Z' visible='true' lat='41.3991427' lon='2.1702109' />
  <node id='-1443339' timestamp='2014-05-22T10:28:48Z' visible='true' lat='41.3992086' lon='2.1703964' />
  <node id='-1443338' timestamp='2011-06-04T09:07:52Z' visible='true' lat='41.3993638' lon='2.170833' />
  <node id='-1443337' timestamp='2011-06-04T09:08:43Z' visible='true' lat='41.389633' lon='2.1325203' />
  <node id='-1443336' timestamp='2012-04-25T13:06:10Z' visible='true' lat='41.3907959' lon='2.1370942'>
    <tag k='highway' v='traffic_signals' />
  </node>
  <node id='-1443335' timestamp='2011-10-24T18:59:21Z' visible='true' lat='41.3912379' lon='2.1387905' />
  <node id='-1443334' timestamp='2014-06-06T08:58:39Z' visible='true' lat='41.3951967' lon='2.1548191'>
    <tag k='bicycle' v='use_sidepath' />
  </node>
  <node id='-1443333' timestamp='2014-06-06T08:58:38Z' visible='true' lat='41.3950356' lon='2.1541784'>
    <tag k='bicycle' v='use_sidepath' />
  </node>
  <node id='-1443332' timestamp='2014-06-06T08:58:39Z' visible='true' lat='41.3947759' lon='2.1531457'>
    <tag k='bicycle' v='use_sidepath' />
  </node>
  <node id='-1443331' timestamp='2014-06-06T08:58:39Z' visible='true' lat='41.3943212' lon='2.1514625'>
    <tag k='bicycle' v='use_sidepath' />
  </node>
  <node id='-1443330' timestamp='2014-06-06T08:58:40Z' visible='true' lat='41.3938967' lon='2.1498034'>
    <tag k='bicycle' v='use_sidepath' />
  </node>
  <node id='-1443329' timestamp='2014-06-06T08:58:40Z' visible='true' lat='41.3934596' lon='2.1481012'>
    <tag k='bicycle' v='use_sidepath' />
  </node>
  <node id='-1443328' timestamp='2014-06-06T08:58:39Z' visible='true' lat='41.3931531' lon='2.1468875'>
    <tag k='bicycle' v='use_sidepath' />
  </node>
  <node id='-1443327' timestamp='2014-06-06T08:58:40Z' visible='true' lat='41.3930268' lon='2.1464278'>
    <tag k='bicycle' v='use_sidepath' />
  </node>
  <node id='-1443326' timestamp='2013-11-28T14:40:24Z' visible='true' lat='41.4040528' lon='2.1905949' />
  <node id='-1443325' timestamp='2014-06-20T22:19:51Z' visible='true' lat='41.4036976' lon='2.1891063' />
  <node id='-1443324' timestamp='2012-06-08T21:51:30Z' visible='true' lat='41.4036466' lon='2.1888954' />
  <node id='-1443323' timestamp='2012-06-08T21:51:32Z' visible='true' lat='41.4036043' lon='2.1887535' />
  <node id='-1443322' timestamp='2012-06-08T21:51:31Z' visible='true' lat='41.403549' lon='2.1885455' />
  <node id='-1443321' timestamp='2014-03-05T08:38:23Z' visible='true' lat='41.4035153' lon='2.1883928' />
  <node id='-1443320' timestamp='2014-04-14T16:33:39Z' visible='true' lat='41.4034889' lon='2.1882995' />
  <node id='-1443319' timestamp='2014-06-06T08:58:37Z' visible='true' lat='41.39288' lon='2.1458097'>
    <tag k='bicycle' v='use_sidepath' />
  </node>
  <node id='-1443318' timestamp='2012-01-14T13:47:25Z' visible='true' lat='41.3927255' lon='2.1452055'>
    <tag k='crossing' v='traffic_signals' />
    <tag k='highway' v='crossing' />
  </node>
  <node id='-1443317' timestamp='2012-01-14T13:47:26Z' visible='true' lat='41.3927114' lon='2.1451407'>
    <tag k='bicycle' v='yes' />
    <tag k='crossing' v='traffic_signals' />
    <tag k='highway' v='crossing' />
  </node>
  <node id='-1443316' timestamp='2014-06-06T08:58:36Z' visible='true' lat='41.3926763' lon='2.1450566'>
    <tag k='bicycle' v='use_sidepath' />
  </node>
  <node id='-1443315' timestamp='2014-06-06T08:58:38Z' visible='true' lat='41.3926063' lon='2.144892'>
    <tag k='bicycle' v='use_sidepath' />
  </node>
  <node id='-1443314' timestamp='2013-09-18T11:53:55Z' visible='true' lat='41.3885254' lon='2.1281394' />
  <node id='-1443313' timestamp='2014-06-06T08:58:37Z' visible='true' lat='41.3879011' lon='2.126611'>
    <tag k='bicycle' v='use_sidepath' />
  </node>
  <node id='-1443312' timestamp='2011-06-04T09:07:52Z' visible='true' lat='41.3936062' lon='2.1479165' />
  <node id='-1443311' timestamp='2012-02-27T12:13:10Z' visible='true' lat='41.3940361' lon='2.1496217' />
  <node id='-1443310' timestamp='2011-07-15T16:35:55Z' visible='true' lat='41.3944641' lon='2.1512901' />
  <node id='-1443309' timestamp='2014-06-06T08:58:38Z' visible='true' lat='41.3880339' lon='2.1271135'>
    <tag k='bicycle' v='use_sidepath' />
  </node>
  <node id='-1443308' timestamp='2014-06-06T08:58:38Z' visible='true' lat='41.3879988' lon='2.1269807'>
    <tag k='bicycle' v='use_sidepath' />
  </node>
  <node id='-1443307' timestamp='2012-05-30T18:10:43Z' visible='true' lat='41.4003295' lon='2.1746877' />
  <node id='-1443306' timestamp='2014-09-01T11:54:17Z' visible='true' lat='41.4004129' lon='2.1749836' />
  <node id='-1443305' timestamp='2013-12-06T17:29:43Z' visible='true' lat='41.4004193' lon='2.1750062' />
  <node id='-1443304' timestamp='2013-12-06T17:29:43Z' visible='true' lat='41.4007969' lon='2.1763459' />
  <node id='-1443303' timestamp='2011-06-04T09:07:50Z' visible='true' lat='41.3989614' lon='2.169336' />
  <node id='-1443302' timestamp='2013-10-02T17:26:52Z' visible='true' lat='41.3986963' lon='2.1682793' />
  <node id='-1443301' timestamp='2013-10-02T17:26:47Z' visible='true' lat='41.3982853' lon='2.1665055' />
  <node id='-1443300' timestamp='2014-04-26T19:24:35Z' visible='true' lat='41.3982747' lon='2.1664637' />
  <node id='-1443299' timestamp='2014-06-08T15:57:22Z' visible='true' lat='41.3978763' lon='2.1648928' />
  <node id='-1443298' timestamp='2011-06-04T09:07:50Z' visible='true' lat='41.3978549' lon='2.1648085' />
  <node id='-1443297' timestamp='2012-05-30T18:21:04Z' visible='true' lat='41.397463' lon='2.1631474' />
  <node id='-1443296' timestamp='2012-05-30T18:21:04Z' visible='true' lat='41.397015' lon='2.1614339' />
  <node id='-1443295' timestamp='2011-06-04T09:07:52Z' visible='true' lat='41.3967395' lon='2.1603436' />
  <node id='-1443294' timestamp='2011-06-04T09:08:20Z' visible='true' lat='41.3878142' lon='2.125351' />
  <node id='-1443293' timestamp='2011-09-06T22:47:16Z' visible='true' lat='41.3879569' lon='2.1259144' />
  <node id='-1443292' timestamp='2014-05-27T13:29:29Z' visible='true' lat='41.3882407' lon='2.1270252' />
  <node id='-1443291' timestamp='2013-09-11T18:16:37Z' visible='true' lat='41.3869778' lon='2.1220586' />
  <node id='-1443290' timestamp='2013-09-11T18:16:38Z' visible='true' lat='41.3873072' lon='2.1233181' />
  <node id='-1443289' timestamp='2013-12-06T17:29:43Z' visible='true' lat='41.4024454' lon='2.1836254' />
  <node id='-1443288' timestamp='2014-03-04T18:20:56Z' visible='true' lat='41.4028471' lon='2.1852955' />
  <node id='-1443287' timestamp='2014-06-06T08:58:40Z' visible='true' lat='41.4006167' lon='2.1760135'>
    <tag k='bicycle' v='use_sidepath' />
  </node>
  <node id='-1443286' timestamp='2014-06-06T08:58:40Z' visible='true' lat='41.4002851' lon='2.1751851'>
    <tag k='bicycle' v='use_sidepath' />
  </node>
  <node id='-1443285' timestamp='2014-06-06T08:58:37Z' visible='true' lat='41.3963672' lon='2.1594541'>
    <tag k='bicycle' v='use_sidepath' />
  </node>
  <node id='-1443284' timestamp='2014-06-06T08:58:39Z' visible='true' lat='41.3963242' lon='2.159365'>
    <tag k='bicycle' v='use_sidepath' />
  </node>
  <node id='-1443283' timestamp='2011-07-28T22:58:50Z' visible='true' lat='41.3962998' lon='2.1592878'>
    <tag k='bicycle' v='yes' />
    <tag k='crossing' v='traffic_signals' />
    <tag k='highway' v='crossing' />
  </node>
  <node id='-1443282' timestamp='2014-06-06T08:58:40Z' visible='true' lat='41.3962556' lon='2.1591338'>
    <tag k='bicycle' v='use_sidepath' />
  </node>
  <node id='-1443281' timestamp='2014-06-06T08:58:38Z' visible='true' lat='41.3961867' lon='2.1588795'>
    <tag k='bicycle' v='use_sidepath' />
  </node>
  <node id='-1443280' timestamp='2014-06-06T08:58:37Z' visible='true' lat='41.396017' lon='2.1581907'>
    <tag k='bicycle' v='use_sidepath' />
  </node>
  <node id='-1443279' timestamp='2014-06-06T08:58:39Z' visible='true' lat='41.3957483' lon='2.1571802'>
    <tag k='bicycle' v='use_sidepath' />
  </node>
  <node id='-1443278' timestamp='2014-06-06T08:58:39Z' visible='true' lat='41.3957221' lon='2.1570637'>
    <tag k='bicycle' v='use_sidepath' />
  </node>
  <node id='-1443277' timestamp='2014-06-06T08:58:36Z' visible='true' lat='41.3954201' lon='2.1557414'>
    <tag k='bicycle' v='use_sidepath' />
  </node>
  <node id='-1443276' timestamp='2011-09-07T12:38:47Z' visible='true' lat='41.3859275' lon='2.1188243' />
  <node id='-1443275' timestamp='2011-10-23T12:02:43Z' visible='true' lat='41.3859038' lon='2.1187307' />
  <node id='-1443274' timestamp='2013-10-01T21:58:35Z' visible='true' lat='41.3857244' lon='2.1180162'>
    <tag k='highway' v='traffic_signals' />
  </node>
  <node id='-1443273' timestamp='2010-04-07T21:00:07Z' visible='true' lat='41.3854842' lon='2.1170987' />
  <node id='-1443272' timestamp='2011-07-19T21:44:07Z' visible='true' lat='41.3854305' lon='2.1168915' />
  <node id='-1443271' timestamp='2014-06-06T08:58:37Z' visible='true' lat='41.398923' lon='2.1699079'>
    <tag k='bicycle' v='use_sidepath' />
  </node>
  <node id='-1443270' timestamp='2014-06-06T08:58:38Z' visible='true' lat='41.398899' lon='2.1697548'>
    <tag k='bicycle' v='use_sidepath' />
  </node>
  <node id='-1443269' timestamp='2014-06-06T08:58:40Z' visible='true' lat='41.3988084' lon='2.1691762'>
    <tag k='bicycle' v='use_sidepath' />
  </node>
  <node id='-1443268' timestamp='2014-06-06T08:58:38Z' visible='true' lat='41.392981' lon='2.144812'>
    <tag k='bicycle' v='use_sidepath' />
  </node>
  <node id='-1443267' timestamp='2012-01-14T13:47:28Z' visible='true' lat='41.3930255' lon='2.1450095'>
    <tag k='bicycle' v='yes' />
    <tag k='crossing' v='traffic_signals' />
    <tag k='highway' v='crossing' />
  </node>
  <node id='-1443266' timestamp='2012-01-14T13:47:07Z' visible='true' lat='41.3930461' lon='2.1450831'>
    <tag k='crossing' v='traffic_signals' />
    <tag k='highway' v='crossing' />
  </node>
  <node id='-1443265' timestamp='2014-06-06T08:58:40Z' visible='true' lat='41.3931688' lon='2.1454978'>
    <tag k='bicycle' v='use_sidepath' />
  </node>
  <node id='-1443264' timestamp='2014-06-06T08:58:40Z' visible='true' lat='41.3937349' lon='2.1477628'>
    <tag k='bicycle' v='use_sidepath' />
  </node>
  <node id='-1443263' timestamp='2012-05-30T18:10:43Z' visible='true' lat='41.4011651' lon='2.1776523' />
  <node id='-1443262' timestamp='2012-05-30T18:10:46Z' visible='true' lat='41.4012622' lon='2.1780146' />
  <node id='-1443261' timestamp='2009-03-30T21:29:58Z' visible='true' lat='41.4013797' lon='2.178344' />
  <node id='-1443260' timestamp='2009-07-16T11:17:05Z' visible='true' lat='41.4014004' lon='2.1784289' />
  <node id='-1443259' timestamp='2014-06-06T08:58:36Z' visible='true' lat='41.3992955' lon='2.1700804'>
    <tag k='bicycle' v='use_sidepath' />
  </node>
  <node id='-1443258' timestamp='2014-06-06T08:58:36Z' visible='true' lat='41.3993898' lon='2.1703087'>
    <tag k='bicycle' v='use_sidepath' />
  </node>
  <node id='-1443257' timestamp='2014-06-06T08:58:41Z' visible='true' lat='41.3996717' lon='2.1713865'>
    <tag k='bicycle' v='use_sidepath' />
  </node>
  <node id='-1443256' timestamp='2014-06-06T08:58:41Z' visible='true' lat='41.3996936' lon='2.1714576'>
    <tag k='bicycle' v='use_sidepath' />
  </node>
  <node id='-1443255' timestamp='2014-06-06T08:58:41Z' visible='true' lat='41.4000822' lon='2.1730984'>
    <tag k='bicycle' v='use_sidepath' />
  </node>
  <node id='-1443254' timestamp='2014-06-06T08:58:40Z' visible='true' lat='41.4000803' lon='2.1731709'>
    <tag k='bicycle' v='use_sidepath' />
  </node>
  <node id='-1443253' timestamp='2014-09-01T11:54:17Z' visible='true' lat='41.4005237' lon='2.1748348' />
  <node id='-1443252' timestamp='2014-06-06T08:58:41Z' visible='true' lat='41.4005304' lon='2.17486'>
    <tag k='bicycle' v='use_sidepath' />
  </node>
  <node id='-1443251' timestamp='2014-06-06T08:58:37Z' visible='true' lat='41.4008705' lon='2.1761546'>
    <tag k='bicycle' v='use_sidepath' />
  </node>
  <node id='-1443250' timestamp='2014-06-06T08:58:41Z' visible='true' lat='41.4009778' lon='2.1765792'>
    <tag k='bicycle' v='use_sidepath' />
  </node>
  <node id='-1443249' timestamp='2014-06-06T08:58:40Z' visible='true' lat='41.4009928' lon='2.1766729'>
    <tag k='bicycle' v='use_sidepath' />
  </node>
  <way id='-1443248' timestamp='2014-08-15T09:18:43Z' visible='true'>
    <nd ref='-1443499' />
    <nd ref='-1443500' />
    <nd ref='-1443501' />
    <nd ref='-1443502' />
    <nd ref='-1443479' />
    <tag k='bicycle' v='use_sidepath' />
    <tag k='highway' v='tertiary' />
    <tag k='lanes' v='2' />
    <tag k='lit' v='yes' />
    <tag k='maxspeed' v='50' />
    <tag k='name' v='Avinguda Diagonal' />
    <tag k='oneway' v='yes' />
  </way>
  <way id='-1443247' timestamp='2014-06-06T08:58:34Z' visible='true'>
    <nd ref='-1443494' />
    <nd ref='-1443495' />
    <nd ref='-1443496' />
    <nd ref='-1443497' />
    <nd ref='-1443498' />
    <nd ref='-1443352' />
    <tag k='bicycle' v='use_sidepath' />
    <tag k='highway' v='tertiary' />
    <tag k='lanes' v='2' />
    <tag k='maxspeed' v='50' />
    <tag k='name' v='Avinguda Diagonal' />
    <tag k='oneway' v='yes' />
  </way>
  <way id='-1443246' timestamp='2014-08-15T09:18:41Z' visible='true'>
    <nd ref='-1443291' />
    <nd ref='-1443492' />
    <nd ref='-1443493' />
    <tag k='addr:street' v='Avinguda Diagonal' />
    <tag k='highway' v='primary' />
    <tag k='lanes' v='7' />
    <tag k='lit' v='yes' />
    <tag k='maxspeed' v='50' />
    <tag k='name' v='Avinguda Diagonal' />
    <tag k='oneway' v='no' />
    <tag k='ref' v='B-23' />
  </way>
  <way id='-1443245' timestamp='2014-07-23T20:09:42Z' visible='true'>
    <nd ref='-1443309' />
    <nd ref='-1443432' />
    <tag k='bicycle' v='use_sidepath' />
    <tag k='highway' v='tertiary' />
    <tag k='lanes' v='2' />
    <tag k='lit' v='yes' />
    <tag k='maxspeed' v='50' />
    <tag k='name' v='Avinguda Diagonal' />
    <tag k='oneway' v='yes' />
  </way>
  <way id='-1443244' timestamp='2014-07-21T21:38:57Z' visible='true'>
    <nd ref='-1443490' />
    <nd ref='-1443491' />
    <nd ref='-1443303' />
    <tag k='highway' v='primary' />
    <tag k='lit' v='yes' />
    <tag k='name' v='Avinguda Diagonal' />
    <tag k='oneway' v='yes' />
  </way>
  <way id='-1443243' timestamp='2014-06-06T08:58:34Z' visible='true'>
    <nd ref='-1443483' />
    <nd ref='-1443484' />
    <nd ref='-1443485' />
    <nd ref='-1443486' />
    <nd ref='-1443487' />
    <nd ref='-1443488' />
    <nd ref='-1443489' />
    <nd ref='-1443356' />
    <tag k='addr:street' v='Avinguda Diagonal' />
    <tag k='bicycle' v='use_sidepath' />
    <tag k='highway' v='tertiary' />
    <tag k='name' v='Avinguda Diagonal' />
    <tag k='oneway' v='yes' />
    <tag k='wikipedia' v='ca:Avinguda Diagonal' />
  </way>
  <way id='-1443242' timestamp='2014-08-15T09:18:42Z' visible='true'>
    <nd ref='-1443479' />
    <nd ref='-1443480' />
    <nd ref='-1443481' />
    <nd ref='-1443482' />
    <nd ref='-1443313' />
    <tag k='bicycle' v='use_sidepath' />
    <tag k='highway' v='tertiary' />
    <tag k='lanes' v='2' />
    <tag k='lit' v='yes' />
    <tag k='maxspeed' v='50' />
    <tag k='name' v='Avinguda Diagonal' />
    <tag k='oneway' v='yes' />
  </way>
  <way id='-1443241' timestamp='2014-06-06T08:58:35Z' visible='true'>
    <nd ref='-1443435' />
    <nd ref='-1443471' />
    <nd ref='-1443472' />
    <nd ref='-1443473' />
    <nd ref='-1443474' />
    <nd ref='-1443475' />
    <nd ref='-1443476' />
    <nd ref='-1443477' />
    <nd ref='-1443478' />
    <tag k='addr:street' v='Avinguda Diagonal' />
    <tag k='bicycle' v='use_sidepath' />
    <tag k='highway' v='tertiary' />
    <tag k='maxspeed' v='50' />
    <tag k='name' v='Avinguda Diagonal' />
    <tag k='oneway' v='yes' />
    <tag k='wikipedia' v='ca:Avinguda Diagonal' />
  </way>
  <way id='-1443240' timestamp='2014-06-08T15:57:22Z' visible='true'>
    <nd ref='-1443454' />
    <nd ref='-1443464' />
    <nd ref='-1443465' />
    <nd ref='-1443466' />
    <nd ref='-1443467' />
    <nd ref='-1443468' />
    <nd ref='-1443469' />
    <nd ref='-1443470' />
    <nd ref='-1443269' />
    <tag k='bicycle' v='use_sidepath' />
    <tag k='highway' v='tertiary' />
    <tag k='lanes' v='2' />
    <tag k='maxspeed' v='50' />
    <tag k='name' v='Avinguda Diagonal' />
    <tag k='oneway' v='yes' />
  </way>
  <way id='-1443239' timestamp='2014-06-06T08:58:34Z' visible='true'>
    <nd ref='-1443457' />
    <nd ref='-1443458' />
    <nd ref='-1443459' />
    <nd ref='-1443460' />
    <nd ref='-1443461' />
    <nd ref='-1443462' />
    <nd ref='-1443463' />
    <nd ref='-1443413' />
    <tag k='addr:street' v='av. Diagonal' />
    <tag k='bicycle' v='use_sidepath' />
    <tag k='highway' v='tertiary' />
    <tag k='lanes' v='2' />
    <tag k='maxspeed' v='50' />
    <tag k='name' v='Avinguda Diagonal' />
    <tag k='oneway' v='yes' />
  </way>
  <way id='-1443238' timestamp='2014-06-06T08:58:31Z' visible='true'>
    <nd ref='-1443333' />
    <nd ref='-1443334' />
    <tag k='bicycle' v='use_sidepath' />
    <tag k='highway' v='tertiary' />
    <tag k='lanes' v='2' />
    <tag k='maxspeed' v='50' />
    <tag k='name' v='Avinguda Diagonal' />
    <tag k='oneway' v='yes' />
  </way>
  <way id='-1443237' timestamp='2014-07-31T16:30:11Z' visible='true'>
    <nd ref='-1443319' />
    <nd ref='-1443455' />
    <nd ref='-1443456' />
    <nd ref='-1443327' />
    <tag k='bicycle' v='use_sidepath' />
    <tag k='highway' v='tertiary' />
    <tag k='lanes' v='2' />
    <tag k='lit' v='yes' />
    <tag k='maxspeed' v='50' />
    <tag k='name' v='Avinguda Diagonal' />
    <tag k='oneway' v='yes' />
    <tag k='wikipedia' v='ca:Avinguda Diagonal' />
  </way>
  <way id='-1443236' timestamp='2014-07-28T09:28:15Z' visible='true'>
    <nd ref='-1443408' />
    <nd ref='-1443451' />
    <nd ref='-1443452' />
    <nd ref='-1443453' />
    <nd ref='-1443454' />
    <tag k='bicycle' v='use_sidepath' />
    <tag k='highway' v='tertiary' />
    <tag k='lanes' v='2' />
    <tag k='lit' v='yes' />
    <tag k='maxspeed' v='50' />
    <tag k='name' v='Avinguda Diagonal' />
    <tag k='oneway' v='yes' />
  </way>
  <way id='-1443235' timestamp='2014-09-01T10:47:04Z' visible='true'>
    <nd ref='-1443416' />
    <nd ref='-1443448' />
    <nd ref='-1443449' />
    <nd ref='-1443450' />
    <nd ref='-1443386' />
    <tag k='addr:street' v='Avinguda Diagonal' />
    <tag k='bicycle' v='use_sidepath' />
    <tag k='highway' v='tertiary' />
    <tag k='lanes' v='2' />
    <tag k='lit' v='yes' />
    <tag k='maxspeed' v='50' />
    <tag k='name' v='Avinguda Diagonal' />
    <tag k='oneway' v='yes' />
  </way>
  <way id='-1443234' timestamp='2014-08-25T17:21:14Z' visible='true'>
    <nd ref='-1443444' />
    <nd ref='-1443445' />
    <nd ref='-1443446' />
    <nd ref='-1443447' />
    <nd ref='-1443428' />
    <tag k='access' v='no' />
    <tag k='addr:street' v='av. Diagonal' />
    <tag k='foot' v='yes' />
    <tag k='highway' v='residential' />
    <tag k='lanes' v='2' />
    <tag k='maxspeed' v='50' />
    <tag k='name' v='Avinguda Diagonal' />
    <tag k='oneway' v='no' />
  </way>
  <way id='-1443233' timestamp='2014-07-25T18:56:01Z' visible='true'>
    <nd ref='-1443440' />
    <nd ref='-1443441' />
    <nd ref='-1443442' />
    <nd ref='-1443443' />
    <tag k='highway' v='primary' />
    <tag k='lit' v='yes' />
    <tag k='maxspeed' v='50' />
    <tag k='name' v='Avinguda Diagonal' />
    <tag k='oneway' v='yes' />
  </way>
  <way id='-1443232' timestamp='2014-07-21T21:38:56Z' visible='true'>
    <nd ref='-1443385' />
    <nd ref='-1443439' />
    <nd ref='-1443404' />
    <tag k='highway' v='primary' />
    <tag k='lit' v='yes' />
    <tag k='maxspeed' v='50' />
    <tag k='name' v='Avinguda Diagonal' />
    <tag k='oneway' v='no' />
    <tag k='sidewalk' v='both' />
  </way>
  <way id='-1443231' timestamp='2013-10-07T12:29:22Z' visible='true'>
    <nd ref='-1443436' />
    <nd ref='-1443437' />
    <nd ref='-1443438' />
    <tag k='highway' v='residential' />
    <tag k='lanes' v='2' />
    <tag k='maxspeed' v='50' />
    <tag k='name' v='Avinguda Diagonal' />
    <tag k='oneway' v='yes' />
  </way>
  <way id='-1443230' timestamp='2014-07-31T17:50:58Z' visible='true'>
    <nd ref='-1443432' />
    <nd ref='-1443433' />
    <nd ref='-1443434' />
    <nd ref='-1443435' />
    <tag k='addr:street' v='av. Diagonal' />
    <tag k='bicycle' v='use_sidepath' />
    <tag k='highway' v='tertiary' />
    <tag k='lit' v='yes' />
    <tag k='name' v='Avinguda Diagonal' />
    <tag k='oneway' v='yes' />
  </way>
  <way id='-1443229' timestamp='2014-07-21T21:38:58Z' visible='true'>
    <nd ref='-1443385' />
    <nd ref='-1443429' />
    <nd ref='-1443430' />
    <nd ref='-1443431' />
    <tag k='highway' v='primary' />
    <tag k='lit' v='yes' />
    <tag k='name' v='Avinguda Diagonal' />
    <tag k='oneway' v='yes' />
  </way>
  <way id='-1443228' timestamp='2014-08-25T17:21:11Z' visible='true'>
    <nd ref='-1443428' />
    <nd ref='-1443417' />
    <tag k='access' v='no' />
    <tag k='addr:street' v='av. Diagonal' />
    <tag k='foot' v='yes' />
    <tag k='highway' v='residential' />
    <tag k='lanes' v='2' />
    <tag k='maxspeed' v='50' />
    <tag k='name' v='Avinguda Diagonal' />
    <tag k='oneway' v='no' />
  </way>
  <way id='-1443227' timestamp='2014-07-21T21:38:57Z' visible='true'>
    <nd ref='-1443303' />
    <nd ref='-1443426' />
    <nd ref='-1443427' />
    <tag k='highway' v='primary' />
    <tag k='lit' v='yes' />
    <tag k='name' v='Avinguda Diagonal' />
    <tag k='oneway' v='yes' />
  </way>
  <way id='-1443226' timestamp='2014-09-01T11:54:24Z' visible='true'>
    <nd ref='-1443417' />
    <nd ref='-1443418' />
    <nd ref='-1443419' />
    <nd ref='-1443420' />
    <nd ref='-1443421' />
    <nd ref='-1443422' />
    <nd ref='-1443423' />
    <nd ref='-1443424' />
    <nd ref='-1443425' />
    <nd ref='-1443260' />
    <tag k='addr:street' v='av. Diagonal' />
    <tag k='highway' v='primary' />
    <tag k='lanes' v='2' />
    <tag k='maxspeed' v='50' />
    <tag k='name' v='Avinguda Diagonal' />
    <tag k='oneway' v='yes' />
  </way>
  <way id='-1443225' timestamp='2014-09-01T10:47:04Z' visible='true'>
    <nd ref='-1443413' />
    <nd ref='-1443414' />
    <nd ref='-1443415' />
    <nd ref='-1443416' />
    <tag k='addr:street' v='Avinguda Diagonal' />
    <tag k='bicycle' v='use_sidepath' />
    <tag k='highway' v='tertiary' />
    <tag k='lanes' v='2' />
    <tag k='lit' v='yes' />
    <tag k='maxspeed' v='50' />
    <tag k='name' v='Avinguda Diagonal' />
    <tag k='oneway' v='yes' />
  </way>
  <way id='-1443224' timestamp='2014-07-21T21:38:56Z' visible='true'>
    <nd ref='-1443412' />
    <nd ref='-1443295' />
    <tag k='highway' v='primary' />
    <tag k='lit' v='yes' />
    <tag k='name' v='Avinguda Diagonal' />
    <tag k='oneway' v='yes' />
  </way>
  <way id='-1443223' timestamp='2014-09-01T10:47:05Z' visible='true'>
    <nd ref='-1443387' />
    <nd ref='-1443409' />
    <nd ref='-1443410' />
    <nd ref='-1443411' />
    <nd ref='-1443375' />
    <tag k='addr:street' v='Avinguda Diagonal' />
    <tag k='bicycle' v='use_sidepath' />
    <tag k='highway' v='tertiary' />
    <tag k='lanes' v='2' />
    <tag k='lit' v='yes' />
    <tag k='maxspeed' v='50' />
    <tag k='name' v='Avinguda Diagonal' />
    <tag k='oneway' v='yes' />
    <tag k='sidewalk' v='both' />
  </way>
  <way id='-1443222' timestamp='2014-07-28T09:28:15Z' visible='true'>
    <nd ref='-1443407' />
    <nd ref='-1443408' />
    <tag k='highway' v='tertiary' />
    <tag k='lanes' v='2' />
    <tag k='lit' v='yes' />
    <tag k='maxspeed' v='50' />
    <tag k='name' v='Avinguda Diagonal' />
    <tag k='oneway' v='yes' />
  </way>
  <way id='-1443221' timestamp='2014-05-22T10:28:49Z' visible='true'>
    <nd ref='-1443405' />
    <nd ref='-1443406' />
    <nd ref='-1443338' />
    <tag k='highway' v='primary' />
    <tag k='name' v='Avinguda Diagonal' />
    <tag k='oneway' v='-1' />
  </way>
  <way id='-1443220' timestamp='2014-07-21T21:38:56Z' visible='true'>
    <nd ref='-1443404' />
    <nd ref='-1443341' />
    <tag k='highway' v='primary' />
    <tag k='lit' v='yes' />
    <tag k='maxspeed' v='50' />
    <tag k='name' v='Avinguda Diagonal' />
    <tag k='oneway' v='no' />
    <tag k='sidewalk' v='both' />
  </way>
  <way id='-1443219' timestamp='2014-06-06T08:58:32Z' visible='true'>
    <nd ref='-1443400' />
    <nd ref='-1443401' />
    <nd ref='-1443402' />
    <nd ref='-1443403' />
    <tag k='bicycle' v='use_sidepath' />
    <tag k='highway' v='tertiary' />
    <tag k='lanes' v='2' />
    <tag k='maxspeed' v='50' />
    <tag k='name' v='Avinguda Diagonal' />
    <tag k='oneway' v='yes' />
  </way>
  <way id='-1443218' timestamp='2014-09-01T11:54:21Z' visible='true'>
    <nd ref='-1443307' />
    <nd ref='-1443390' />
    <nd ref='-1443391' />
    <nd ref='-1443287' />
    <nd ref='-1443392' />
    <nd ref='-1443393' />
    <nd ref='-1443394' />
    <nd ref='-1443395' />
    <nd ref='-1443396' />
    <nd ref='-1443397' />
    <nd ref='-1443398' />
    <nd ref='-1443399' />
    <nd ref='-1443289' />
    <tag k='access' v='no' />
    <tag k='highway' v='primary' />
    <tag k='lanes' v='2' />
    <tag k='maxspeed' v='50' />
    <tag k='name' v='Avinguda Diagonal' />
    <tag k='oneway' v='yes' />
  </way>
  <way id='-1443217' timestamp='2014-07-21T21:38:56Z' visible='true'>
    <nd ref='-1443295' />
    <nd ref='-1443388' />
    <nd ref='-1443389' />
    <tag k='highway' v='primary' />
    <tag k='lit' v='yes' />
    <tag k='name' v='Avinguda Diagonal' />
    <tag k='oneway' v='yes' />
  </way>
  <way id='-1443216' timestamp='2014-09-01T10:47:05Z' visible='true'>
    <nd ref='-1443386' />
    <nd ref='-1443387' />
    <tag k='addr:street' v='Avinguda Diagonal' />
    <tag k='bicycle' v='use_sidepath' />
    <tag k='highway' v='tertiary' />
    <tag k='lanes' v='2' />
    <tag k='lit' v='yes' />
    <tag k='maxspeed' v='50' />
    <tag k='name' v='Avinguda Diagonal' />
    <tag k='oneway' v='yes' />
    <tag k='sidewalk' v='both' />
  </way>
  <way id='-1443215' timestamp='2014-07-21T21:38:57Z' visible='true'>
    <nd ref='-1443383' />
    <nd ref='-1443384' />
    <nd ref='-1443385' />
    <tag k='highway' v='primary' />
    <tag k='lit' v='yes' />
    <tag k='name' v='Avinguda Diagonal' />
    <tag k='oneway' v='yes' />
  </way>
  <way id='-1443214' timestamp='2014-06-06T08:58:35Z' visible='true'>
    <nd ref='-1443375' />
    <nd ref='-1443376' />
    <nd ref='-1443377' />
    <nd ref='-1443378' />
    <nd ref='-1443379' />
    <nd ref='-1443380' />
    <nd ref='-1443381' />
    <nd ref='-1443382' />
    <nd ref='-1443264' />
    <tag k='addr:street' v='Avinguda Diagonal' />
    <tag k='bicycle' v='use_sidepath' />
    <tag k='highway' v='tertiary' />
    <tag k='lanes' v='2' />
    <tag k='maxspeed' v='50' />
    <tag k='name' v='Avinguda Diagonal' />
    <tag k='oneway' v='yes' />
    <tag k='wikipedia' v='ca:Avinguda Diagonal' />
  </way>
  <way id='-1443213' timestamp='2013-09-16T15:26:30Z' visible='true'>
    <nd ref='-1443338' />
    <nd ref='-1443370' />
    <nd ref='-1443371' />
    <nd ref='-1443372' />
    <nd ref='-1443373' />
    <nd ref='-1443374' />
    <nd ref='-1443307' />
    <tag k='highway' v='primary' />
    <tag k='name' v='Avinguda Diagonal' />
    <tag k='oneway' v='no' />
  </way>
  <way id='-1443212' timestamp='2014-08-31T23:09:49Z' visible='true'>
    <nd ref='-1443356' />
    <nd ref='-1443357' />
    <nd ref='-1443358' />
    <nd ref='-1443359' />
    <nd ref='-1443360' />
    <nd ref='-1443361' />
    <nd ref='-1443362' />
    <nd ref='-1443363' />
    <nd ref='-1443364' />
    <nd ref='-1443365' />
    <nd ref='-1443366' />
    <nd ref='-1443367' />
    <nd ref='-1443368' />
    <nd ref='-1443369' />
    <tag k='addr:street' v='av. Diagonal' />
    <tag k='highway' v='tertiary' />
    <tag k='maxspeed' v='50' />
    <tag k='name' v='Avinguda Diagonal' />
    <tag k='oneway' v='yes' />
  </way>
  <way id='-1443211' timestamp='2014-07-21T21:38:56Z' visible='true'>
    <nd ref='-1443345' />
    <nd ref='-1443335' />
    <tag k='addr:street' v='Avinguda Diagonal' />
    <tag k='highway' v='primary' />
    <tag k='lanes' v='7' />
    <tag k='lit' v='yes' />
    <tag k='maxspeed' v='50' />
    <tag k='name' v='Avinguda Diagonal' />
    <tag k='oneway' v='no' />
    <tag k='wikipedia' v='ca:Avinguda Diagonal' />
  </way>
  <way id='-1443210' timestamp='2014-09-01T11:54:21Z' visible='true'>
    <nd ref='-1443352' />
    <nd ref='-1443353' />
    <nd ref='-1443354' />
    <nd ref='-1443355' />
    <nd ref='-1443286' />
    <tag k='bicycle' v='use_sidepath' />
    <tag k='highway' v='tertiary' />
    <tag k='lanes' v='2' />
    <tag k='maxspeed' v='50' />
    <tag k='name' v='Avinguda Diagonal' />
    <tag k='oneway' v='yes' />
  </way>
  <way id='-1443209' timestamp='2014-07-21T21:38:58Z' visible='true'>
    <nd ref='-1443312' />
    <nd ref='-1443348' />
    <nd ref='-1443349' />
    <nd ref='-1443350' />
    <nd ref='-1443351' />
    <tag k='highway' v='primary' />
    <tag k='lit' v='yes' />
    <tag k='maxspeed' v='50' />
    <tag k='name' v='Avinguda Diagonal' />
    <tag k='oneway' v='no' />
    <tag k='sidewalk' v='both' />
    <tag k='wikipedia' v='ca:Avinguda Diagonal' />
  </way>
  <way id='-1443208' timestamp='2014-07-26T11:07:25Z' visible='true'>
    <nd ref='-1443337' />
    <nd ref='-1443346' />
    <nd ref='-1443347' />
    <nd ref='-1443314' />
    <tag k='addr:street' v='Avinguda Diagonal' />
    <tag k='highway' v='primary' />
    <tag k='lanes' v='7' />
    <tag k='lit' v='yes' />
    <tag k='maxspeed' v='50' />
    <tag k='name' v='Avinguda Diagonal' />
    <tag k='oneway' v='no' />
    <tag k='ref' v='B-23' />
    <tag k='surface' v='asphalt' />
  </way>
  <way id='-1443207' timestamp='2014-07-21T21:38:57Z' visible='true'>
    <nd ref='-1443343' />
    <nd ref='-1443344' />
    <nd ref='-1443345' />
    <tag k='addr:street' v='Avinguda Diagonal' />
    <tag k='highway' v='primary' />
    <tag k='lanes' v='7' />
    <tag k='lit' v='yes' />
    <tag k='maxspeed' v='50' />
    <tag k='name' v='Avinguda Diagonal' />
    <tag k='oneway' v='no' />
    <tag k='wikipedia' v='ca:Avinguda Diagonal' />
  </way>
  <way id='-1443206' timestamp='2014-07-21T21:38:56Z' visible='true'>
    <nd ref='-1443341' />
    <nd ref='-1443342' />
    <nd ref='-1443310' />
    <tag k='highway' v='primary' />
    <tag k='lit' v='yes' />
    <tag k='maxspeed' v='50' />
    <tag k='name' v='Avinguda Diagonal' />
    <tag k='oneway' v='no' />
    <tag k='sidewalk' v='both' />
  </way>
  <way id='-1443205' timestamp='2014-05-22T10:28:49Z' visible='true'>
    <nd ref='-1443338' />
    <nd ref='-1443339' />
    <nd ref='-1443340' />
    <tag k='highway' v='primary' />
    <tag k='name' v='Avinguda Diagonal' />
    <tag k='oneway' v='-1' />
  </way>
  <way id='-1443204' timestamp='2014-07-26T11:07:25Z' visible='true'>
    <nd ref='-1443335' />
    <nd ref='-1443336' />
    <nd ref='-1443337' />
    <tag k='highway' v='primary' />
    <tag k='lanes' v='7' />
    <tag k='lit' v='yes' />
    <tag k='maxspeed' v='50' />
    <tag k='name' v='Avinguda Diagonal' />
    <tag k='oneway' v='no' />
    <tag k='wikipedia' v='ca:Avinguda Diagonal' />
  </way>
  <way id='-1443203' timestamp='2014-06-06T08:58:31Z' visible='true'>
    <nd ref='-1443334' />
    <nd ref='-1443277' />
    <tag k='bicycle' v='use_sidepath' />
    <tag k='highway' v='tertiary' />
    <tag k='lanes' v='2' />
    <tag k='maxspeed' v='50' />
    <tag k='name' v='Avinguda Diagonal' />
    <tag k='oneway' v='yes' />
  </way>
  <way id='-1443202' timestamp='2014-07-31T16:29:40Z' visible='true'>
    <nd ref='-1443327' />
    <nd ref='-1443328' />
    <nd ref='-1443329' />
    <nd ref='-1443330' />
    <nd ref='-1443331' />
    <nd ref='-1443332' />
    <nd ref='-1443333' />
    <tag k='bicycle' v='use_sidepath' />
    <tag k='highway' v='tertiary' />
    <tag k='lanes' v='2' />
    <tag k='maxspeed' v='50' />
    <tag k='name' v='Avinguda Diagonal' />
    <tag k='oneway' v='yes' />
    <tag k='wikipedia' v='ca:Avinguda Diagonal' />
  </way>
  <way id='-1443201' timestamp='2014-07-25T18:56:01Z' visible='true'>
    <nd ref='-1443320' />
    <nd ref='-1443321' />
    <nd ref='-1443322' />
    <nd ref='-1443323' />
    <nd ref='-1443324' />
    <nd ref='-1443325' />
    <nd ref='-1443326' />
    <tag k='highway' v='primary' />
    <tag k='lit' v='yes' />
    <tag k='maxspeed' v='50' />
    <tag k='name' v='Avinguda Diagonal' />
    <tag k='oneway' v='yes' />
  </way>
  <way id='-1443200' timestamp='2014-06-06T08:58:33Z' visible='true'>
    <nd ref='-1443315' />
    <nd ref='-1443316' />
    <nd ref='-1443317' />
    <nd ref='-1443318' />
    <nd ref='-1443319' />
    <tag k='bicycle' v='use_sidepath' />
    <tag k='highway' v='tertiary' />
    <tag k='lanes' v='2' />
    <tag k='maxspeed' v='50' />
    <tag k='name' v='Avinguda Diagonal' />
    <tag k='oneway' v='yes' />
    <tag k='wikipedia' v='ca:Avinguda Diagonal' />
  </way>
  <way id='-1443199' timestamp='2014-07-23T20:09:24Z' visible='true'>
    <nd ref='-1443314' />
    <nd ref='-1443292' />
    <tag k='addr:street' v='Avinguda Diagonal' />
    <tag k='highway' v='primary' />
    <tag k='lanes' v='7' />
    <tag k='lit' v='yes' />
    <tag k='maxspeed' v='50' />
    <tag k='name' v='Avinguda Diagonal' />
    <tag k='oneway' v='no' />
    <tag k='ref' v='B-23' />
    <tag k='surface' v='asphalt' />
  </way>
  <way id='-1443198' timestamp='2014-07-31T20:18:02Z' visible='true'>
    <nd ref='-1443313' />
    <nd ref='-1443308' />
    <tag k='bicycle' v='use_sidepath' />
    <tag k='highway' v='tertiary' />
    <tag k='lanes' v='2' />
    <tag k='lit' v='yes' />
    <tag k='maxspeed' v='50' />
    <tag k='name' v='Avinguda Diagonal' />
    <tag k='oneway' v='yes' />
  </way>
  <way id='-1443197' timestamp='2014-07-21T21:38:57Z' visible='true'>
    <nd ref='-1443310' />
    <nd ref='-1443311' />
    <nd ref='-1443312' />
    <tag k='highway' v='primary' />
    <tag k='lit' v='yes' />
    <tag k='maxspeed' v='50' />
    <tag k='name' v='Avinguda Diagonal' />
    <tag k='oneway' v='no' />
    <tag k='sidewalk' v='both' />
    <tag k='wikipedia' v='ca:Avinguda Diagonal' />
  </way>
  <way id='-1443196' timestamp='2014-07-31T20:17:28Z' visible='true'>
    <nd ref='-1443308' />
    <nd ref='-1443309' />
    <tag k='bicycle' v='use_sidepath' />
    <tag k='highway' v='tertiary' />
    <tag k='lanes' v='2' />
    <tag k='lit' v='yes' />
    <tag k='maxspeed' v='50' />
    <tag k='name' v='Avinguda Diagonal' />
    <tag k='oneway' v='yes' />
  </way>
  <way id='-1443195' timestamp='2014-09-01T11:54:21Z' visible='true'>
    <nd ref='-1443263' />
    <nd ref='-1443304' />
    <nd ref='-1443305' />
    <nd ref='-1443306' />
    <nd ref='-1443307' />
    <tag k='highway' v='primary' />
    <tag k='name' v='Avinguda Diagonal' />
    <tag k='oneway' v='yes' />
  </way>
  <way id='-1443194' timestamp='2014-07-21T21:38:58Z' visible='true'>
    <nd ref='-1443295' />
    <nd ref='-1443296' />
    <nd ref='-1443297' />
    <nd ref='-1443298' />
    <nd ref='-1443299' />
    <nd ref='-1443300' />
    <nd ref='-1443301' />
    <nd ref='-1443302' />
    <nd ref='-1443303' />
    <tag k='highway' v='primary' />
    <tag k='lit' v='yes' />
    <tag k='name' v='Avinguda Diagonal' />
    <tag k='oneway' v='no' />
  </way>
  <way id='-1443193' timestamp='2014-08-15T09:18:42Z' visible='true'>
    <nd ref='-1443292' />
    <nd ref='-1443293' />
    <nd ref='-1443294' />
    <nd ref='-1443290' />
    <tag k='addr:street' v='Avinguda Diagonal' />
    <tag k='highway' v='primary' />
    <tag k='lanes' v='7' />
    <tag k='lit' v='yes' />
    <tag k='maxspeed' v='50' />
    <tag k='name' v='Avinguda Diagonal' />
    <tag k='oneway' v='no' />
    <tag k='ref' v='B-23' />
    <tag k='surface' v='asphalt' />
  </way>
  <way id='-1443192' timestamp='2014-08-15T09:18:41Z' visible='true'>
    <nd ref='-1443290' />
    <nd ref='-1443291' />
    <tag k='addr:street' v='Avinguda Diagonal' />
    <tag k='highway' v='primary' />
    <tag k='lanes' v='7' />
    <tag k='lit' v='yes' />
    <tag k='maxspeed' v='50' />
    <tag k='name' v='Avinguda Diagonal' />
    <tag k='oneway' v='no' />
    <tag k='ref' v='B-23' />
    <tag k='surface' v='asphalt' />
  </way>
  <way id='-1443191' timestamp='2014-08-25T17:21:14Z' visible='true'>
    <nd ref='-1443288' />
    <nd ref='-1443289' />
    <tag k='access' v='no' />
    <tag k='highway' v='residential' />
    <tag k='lanes' v='2' />
    <tag k='maxspeed' v='50' />
    <tag k='name' v='Avinguda Diagonal' />
    <tag k='oneway' v='no' />
  </way>
  <way id='-1443190' timestamp='2014-06-06T08:58:31Z' visible='true'>
    <nd ref='-1443286' />
    <nd ref='-1443287' />
    <tag k='bicycle' v='use_sidepath' />
    <tag k='highway' v='tertiary' />
    <tag k='lanes' v='2' />
    <tag k='maxspeed' v='50' />
    <tag k='name' v='Avinguda Diagonal' />
    <tag k='oneway' v='yes' />
  </way>
  <way id='-1443189' timestamp='2014-07-28T09:28:16Z' visible='true'>
    <nd ref='-1443277' />
    <nd ref='-1443278' />
    <nd ref='-1443279' />
    <nd ref='-1443280' />
    <nd ref='-1443281' />
    <nd ref='-1443282' />
    <nd ref='-1443283' />
    <nd ref='-1443284' />
    <nd ref='-1443285' />
    <tag k='bicycle' v='use_sidepath' />
    <tag k='highway' v='tertiary' />
    <tag k='lanes' v='2' />
    <tag k='lit' v='yes' />
    <tag k='maxspeed' v='50' />
    <tag k='name' v='Avinguda Diagonal' />
    <tag k='oneway' v='yes' />
    <tag k='sidewalk' v='both' />
  </way>
  <way id='-1443188' timestamp='2014-08-15T09:18:42Z' visible='true'>
    <nd ref='-1443272' />
    <nd ref='-1443273' />
    <nd ref='-1443274' />
    <nd ref='-1443275' />
    <nd ref='-1443276' />
    <tag k='highway' v='tertiary' />
    <tag k='lanes' v='2' />
    <tag k='lit' v='yes' />
    <tag k='maxspeed' v='50' />
    <tag k='name' v='Avinguda Diagonal' />
    <tag k='oneway' v='yes' />
  </way>
  <way id='-1443187' timestamp='2014-06-06T08:58:31Z' visible='true'>
    <nd ref='-1443269' />
    <nd ref='-1443270' />
    <nd ref='-1443271' />
    <tag k='bicycle' v='use_sidepath' />
    <tag k='highway' v='tertiary' />
    <tag k='lanes' v='2' />
    <tag k='maxspeed' v='50' />
    <tag k='name' v='Avinguda Diagonal' />
    <tag k='oneway' v='yes' />
  </way>
  <way id='-1443186' timestamp='2014-06-06T08:58:33Z' visible='true'>
    <nd ref='-1443264' />
    <nd ref='-1443265' />
    <nd ref='-1443266' />
    <nd ref='-1443267' />
    <nd ref='-1443268' />
    <tag k='addr:street' v='Avinguda Diagonal' />
    <tag k='bicycle' v='use_sidepath' />
    <tag k='highway' v='tertiary' />
    <tag k='lanes' v='2' />
    <tag k='maxspeed' v='50' />
    <tag k='name' v='Avinguda Diagonal' />
    <tag k='oneway' v='yes' />
    <tag k='wikipedia' v='ca:Avinguda Diagonal' />
  </way>
  <way id='-1443185' timestamp='2012-05-30T18:10:50Z' visible='true'>
    <nd ref='-1443260' />
    <nd ref='-1443261' />
    <nd ref='-1443262' />
    <nd ref='-1443263' />
    <tag k='addr:street' v='av. Diagonal' />
    <tag k='highway' v='primary' />
    <tag k='lanes' v='2' />
    <tag k='maxspeed' v='50' />
    <tag k='name' v='Avinguda Diagonal' />
    <tag k='oneway' v='yes' />
  </way>
  <way id='-1443184' timestamp='2014-09-01T11:54:22Z' visible='true'>
    <nd ref='-1443249' />
    <nd ref='-1443250' />
    <nd ref='-1443251' />
    <nd ref='-1443252' />
    <nd ref='-1443253' />
    <nd ref='-1443254' />
    <nd ref='-1443255' />
    <nd ref='-1443256' />
    <nd ref='-1443257' />
    <nd ref='-1443258' />
    <nd ref='-1443259' />
    <tag k='addr:street' v='av. Diagonal' />
    <tag k='bicycle' v='use_sidepath' />
    <tag k='highway' v='tertiary' />
    <tag k='lanes' v='2' />
    <tag k='maxspeed' v='50' />
    <tag k='name' v='Avinguda Diagonal' />
    <tag k='oneway' v='yes' />
  </way>
</osm>
