<?xml version='1.0' encoding='UTF-8'?>
<osm version='0.6' upload='true' generator='JOSM'>
  <node id='-1444198' timestamp='2014-06-06T08:58:36Z' visible='true' lat='41.3954201' lon='2.1557414'>
    <tag k='bicycle' v='use_sidepath' />
  </node>
  <node id='-1444197' timestamp='2011-12-06T13:53:35Z' visible='true' lat='41.3954591' lon='2.155716' />
  <node id='-1444196' timestamp='2014-07-28T17:01:29Z' visible='true' lat='41.397771' lon='2.1277023'>
    <tag k='highway' v='traffic_signals' />
  </node>
  <node id='-1444195' timestamp='2014-07-28T17:01:20Z' visible='true' lat='41.397767' lon='2.1278187'>
    <tag k='highway' v='traffic_signals' />
  </node>
  <node id='-1444194' timestamp='2014-07-28T17:01:20Z' visible='true' lat='41.397767' lon='2.1278636'>
    <tag k='highway' v='crossing' />
  </node>
  <node id='-1444193' timestamp='2012-01-10T09:51:03Z' visible='true' lat='41.3987032' lon='2.1254297' />
  <node id='-1444192' timestamp='2014-07-28T17:01:29Z' visible='true' lat='41.3985676' lon='2.125624'>
    <tag k='crossing' v='traffic_signals' />
    <tag k='highway' v='crossing' />
  </node>
  <node id='-1444191' timestamp='2014-07-28T17:01:21Z' visible='true' lat='41.398549' lon='2.1256505'>
    <tag k='highway' v='traffic_signals' />
  </node>
  <node id='-1444190' timestamp='2014-07-31T17:50:49Z' visible='true' lat='41.3984128' lon='2.1258299'>
    <tag k='bus' v='yes' />
    <tag k='public_transport' v='stop_position' />
  </node>
  <node id='-1444189' timestamp='2012-05-31T22:51:55Z' visible='true' lat='41.3982162' lon='2.1260781' />
  <node id='-1444188' timestamp='2012-05-31T22:51:54Z' visible='true' lat='41.3981352' lon='2.1261861' />
  <node id='-1444187' timestamp='2012-05-31T22:51:55Z' visible='true' lat='41.3981006' lon='2.1261416' />
  <node id='-1444186' timestamp='2012-05-31T22:51:55Z' visible='true' lat='41.3981713' lon='2.1259968' />
  <node id='-1444185' timestamp='2012-05-31T22:51:55Z' visible='true' lat='41.3982729' lon='2.1258418' />
  <node id='-1444184' timestamp='2014-07-28T17:01:21Z' visible='true' lat='41.3984693' lon='2.1255611'>
    <tag k='crossing' v='traffic_signals' />
    <tag k='highway' v='crossing' />
  </node>
  <node id='-1444183' timestamp='2014-07-28T17:01:21Z' visible='true' lat='41.3984889' lon='2.1255341'>
    <tag k='highway' v='traffic_signals' />
  </node>
  <node id='-1444182' timestamp='2014-07-31T17:50:49Z' visible='true' lat='41.3986041' lon='2.125377'>
    <tag k='bus' v='yes' />
    <tag k='public_transport' v='stop_position' />
  </node>
  <node id='-1444181' timestamp='2012-05-31T22:51:55Z' visible='true' lat='41.3986484' lon='2.1253211' />
  <node id='-1444180' timestamp='2011-12-06T13:53:34Z' visible='true' lat='41.3955716' lon='2.1556427' />
  <node id='-1444179' timestamp='2011-12-06T13:53:34Z' visible='true' lat='41.3956441' lon='2.1555954' />
  <node id='-1444178' timestamp='2014-06-06T08:58:41Z' visible='true' lat='41.395707' lon='2.1555544'>
    <tag k='bicycle' v='use_sidepath' />
  </node>
  <node id='-1444177' timestamp='2011-10-30T11:48:49Z' visible='true' lat='41.3960204' lon='2.1553726' />
  <node id='-1444176' timestamp='2013-12-09T20:39:59Z' visible='true' lat='41.3963761' lon='2.1551705' />
  <node id='-1444175' timestamp='2013-12-09T20:39:59Z' visible='true' lat='41.3965659' lon='2.155049' />
  <node id='-1444174' timestamp='2014-07-11T10:41:56Z' visible='true' lat='41.3966962' lon='2.1549398' />
  <node id='-1444173' timestamp='2011-10-30T11:48:43Z' visible='true' lat='41.3972514' lon='2.1543496' />
  <node id='-1444172' timestamp='2011-10-30T11:48:49Z' visible='true' lat='41.3976382' lon='2.1539503' />
  <node id='-1444171' timestamp='2011-10-30T11:48:50Z' visible='true' lat='41.3977117' lon='2.1538925' />
  <node id='-1444170' timestamp='2012-07-02T07:45:34Z' visible='true' lat='41.4000585' lon='2.1235955' />
  <node id='-1444169' timestamp='2010-04-08T08:03:14Z' visible='true' lat='41.3977868' lon='2.1361032' />
  <node id='-1444168' timestamp='2010-04-08T08:03:10Z' visible='true' lat='41.3977946' lon='2.1374335' />
  <node id='-1444167' timestamp='2011-11-09T15:08:14Z' visible='true' lat='41.3978007' lon='2.1387236' />
  <node id='-1444166' timestamp='2009-03-22T15:18:58Z' visible='true' lat='41.3978035' lon='2.1390399' />
  <node id='-1444165' timestamp='2009-05-29T11:19:02Z' visible='true' lat='41.3978015' lon='2.1395051' />
  <node id='-1444164' timestamp='2013-01-21T17:25:27Z' visible='true' lat='41.3978208' lon='2.1397818' />
  <node id='-1444163' timestamp='2011-10-07T15:11:51Z' visible='true' lat='41.4003075' lon='2.1514903' />
  <node id='-1444162' timestamp='2011-10-07T15:11:55Z' visible='true' lat='41.4001997' lon='2.1516064' />
  <node id='-1444161' timestamp='2012-12-29T13:58:39Z' visible='true' lat='41.4001146' lon='2.1517043' />
  <node id='-1444160' timestamp='2011-10-07T15:11:53Z' visible='true' lat='41.4000086' lon='2.1518263' />
  <node id='-1444159' timestamp='2011-10-07T15:11:56Z' visible='true' lat='41.3998738' lon='2.1519577' />
  <node id='-1444158' timestamp='2011-10-30T11:48:44Z' visible='true' lat='41.3982066' lon='2.1536024' />
  <node id='-1444157' timestamp='2014-03-24T10:16:21Z' visible='true' lat='41.3977191' lon='2.1540961' />
  <node id='-1444156' timestamp='2011-10-30T11:48:41Z' visible='true' lat='41.3973325' lon='2.1544955' />
  <node id='-1444155' timestamp='2011-10-30T11:48:49Z' visible='true' lat='41.3971095' lon='2.1547139' />
  <node id='-1444154' timestamp='2014-03-06T19:28:54Z' visible='true' lat='41.3967661' lon='2.1550461' />
  <node id='-1444153' timestamp='2011-10-01T10:34:16Z' visible='true' lat='41.3965546' lon='2.1552168' />
  <node id='-1444152' timestamp='2011-10-30T11:48:42Z' visible='true' lat='41.3965001' lon='2.1552526' />
  <node id='-1444151' timestamp='2014-02-26T15:45:32Z' visible='true' lat='41.3963093' lon='2.1553702' />
  <node id='-1444150' timestamp='2014-06-06T08:58:41Z' visible='true' lat='41.3957481' lon='2.1556996'>
    <tag k='bicycle' v='use_sidepath' />
  </node>
  <node id='-1444149' timestamp='2012-05-31T22:51:55Z' visible='true' lat='41.3980081' lon='2.1263653' />
  <node id='-1444148' timestamp='2014-07-28T17:01:29Z' visible='true' lat='41.3979579' lon='2.126518' />
  <node id='-1444147' timestamp='2014-07-28T17:01:21Z' visible='true' lat='41.3979162' lon='2.1266396' />
  <node id='-1444146' timestamp='2014-07-28T17:01:21Z' visible='true' lat='41.397888' lon='2.1267425' />
  <node id='-1444145' timestamp='2014-07-28T17:01:21Z' visible='true' lat='41.3978512' lon='2.126883' />
  <node id='-1444144' timestamp='2014-07-28T17:01:29Z' visible='true' lat='41.3978278' lon='2.127009' />
  <node id='-1444143' timestamp='2014-07-28T17:01:21Z' visible='true' lat='41.3978032' lon='2.1271751' />
  <node id='-1444142' timestamp='2014-09-22T19:19:21Z' visible='true' lat='41.4011124' lon='2.1472521' />
  <node id='-1444141' timestamp='2014-01-14T07:45:58Z' visible='true' lat='41.3995942' lon='2.1241199' />
  <node id='-1444140' timestamp='2012-01-10T09:51:05Z' visible='true' lat='41.3993817' lon='2.1243858' />
  <node id='-1444139' timestamp='2011-11-09T15:51:18Z' visible='true' lat='41.3978311' lon='2.1399305' />
  <node id='-1444138' timestamp='2009-05-29T11:19:02Z' visible='true' lat='41.3979045' lon='2.140329' />
  <node id='-1444137' timestamp='2014-09-11T17:46:57Z' visible='true' lat='41.3979694' lon='2.1406954' />
  <node id='-1444136' timestamp='2014-09-11T17:46:57Z' visible='true' lat='41.3980144' lon='2.1409859'>
    <tag k='highway' v='traffic_signals' />
  </node>
  <node id='-1444135' timestamp='2014-09-11T17:46:57Z' visible='true' lat='41.3982035' lon='2.1416365' />
  <node id='-1444134' timestamp='2014-09-11T17:46:57Z' visible='true' lat='41.3983133' lon='2.141963' />
  <node id='-1444133' timestamp='2014-03-28T16:06:58Z' visible='true' lat='41.4037013' lon='2.1186973' />
  <node id='-1444132' timestamp='2012-05-31T22:51:54Z' visible='true' lat='41.4033986' lon='2.118987' />
  <node id='-1444131' timestamp='2012-05-31T22:51:55Z' visible='true' lat='41.4032353' lon='2.1191396' />
  <node id='-1444130' timestamp='2009-03-22T15:19:05Z' visible='true' lat='41.4028044' lon='2.1196269' />
  <node id='-1444129' timestamp='2009-03-22T15:19:05Z' visible='true' lat='41.4023704' lon='2.1202481' />
  <node id='-1444128' timestamp='2009-03-22T15:19:05Z' visible='true' lat='41.4020641' lon='2.1207756' />
  <node id='-1444127' timestamp='2012-01-10T09:51:02Z' visible='true' lat='41.4016866' lon='2.121505' />
  <node id='-1444126' timestamp='2012-01-10T09:51:02Z' visible='true' lat='41.4013265' lon='2.1221195' />
  <node id='-1444125' timestamp='2009-12-03T23:23:04Z' visible='true' lat='41.4005532' lon='2.1230282' />
  <node id='-1444124' timestamp='2014-09-04T12:04:53Z' visible='true' lat='41.399706' lon='2.1521152' />
  <node id='-1444123' timestamp='2011-10-07T15:11:58Z' visible='true' lat='41.3995205' lon='2.1522572' />
  <node id='-1444122' timestamp='2012-06-02T15:33:05Z' visible='true' lat='41.4005656' lon='2.1510246' />
  <node id='-1444121' timestamp='2012-06-02T15:33:05Z' visible='true' lat='41.4005556' lon='2.1510802' />
  <node id='-1444120' timestamp='2012-06-02T15:33:05Z' visible='true' lat='41.4005172' lon='2.1511832' />
  <node id='-1444119' timestamp='2014-07-28T17:01:29Z' visible='true' lat='41.3977668' lon='2.1281605' />
  <node id='-1444118' timestamp='2014-07-28T17:01:21Z' visible='true' lat='41.397768' lon='2.1285195'>
    <tag k='highway' v='crossing' />
  </node>
  <node id='-1444117' timestamp='2014-07-28T17:01:20Z' visible='true' lat='41.3977673' lon='2.128559'>
    <tag k='highway' v='traffic_signals' />
  </node>
  <node id='-1444116' timestamp='2012-12-26T16:53:20Z' visible='true' lat='41.3977587' lon='2.1289924' />
  <node id='-1444115' timestamp='2012-12-26T16:53:20Z' visible='true' lat='41.3977613' lon='2.129711' />
  <node id='-1444114' timestamp='2012-12-26T16:53:20Z' visible='true' lat='41.3977661' lon='2.1301551' />
  <node id='-1444113' timestamp='2014-03-26T21:56:57Z' visible='true' lat='41.3977679' lon='2.1303805'>
    <tag k='crossing' v='traffic_signals' />
    <tag k='highway' v='crossing' />
  </node>
  <node id='-1444112' timestamp='2014-03-26T21:56:56Z' visible='true' lat='41.3977682' lon='2.130426'>
    <tag k='highway' v='traffic_signals' />
  </node>
  <node id='-1444111' timestamp='2014-03-26T21:56:57Z' visible='true' lat='41.3977768' lon='2.1315043'>
    <tag k='crossing' v='traffic_signals' />
    <tag k='highway' v='crossing' />
  </node>
  <node id='-1444110' timestamp='2012-12-26T16:53:20Z' visible='true' lat='41.3977798' lon='2.1318836' />
  <node id='-1444109' timestamp='2014-03-26T21:56:57Z' visible='true' lat='41.3977827' lon='2.1325236'>
    <tag k='highway' v='traffic_signals' />
  </node>
  <node id='-1444108' timestamp='2014-03-26T21:56:56Z' visible='true' lat='41.3977816' lon='2.1325701'>
    <tag k='crossing' v='traffic_signals' />
    <tag k='highway' v='crossing' />
  </node>
  <node id='-1444107' timestamp='2010-03-30T07:58:41Z' visible='true' lat='41.3992887' lon='2.1524741' />
  <node id='-1444106' timestamp='2014-09-22T19:19:22Z' visible='true' lat='41.3984932' lon='2.1533137' />
  <node id='-1444105' timestamp='2011-10-07T15:11:54Z' visible='true' lat='41.4005739' lon='2.1511424' />
  <node id='-1444104' timestamp='2011-10-07T15:11:56Z' visible='true' lat='41.4005257' lon='2.1512148' />
  <node id='-1444103' timestamp='2011-10-07T15:11:57Z' visible='true' lat='41.4004633' lon='2.151306' />
  <node id='-1444102' timestamp='2012-05-30T18:21:05Z' visible='true' lat='41.4011277' lon='2.1476437' />
  <node id='-1444101' timestamp='2012-05-30T18:21:05Z' visible='true' lat='41.4011527' lon='2.1479948' />
  <node id='-1444100' timestamp='2009-05-29T11:19:11Z' visible='true' lat='41.4011623' lon='2.1484315' />
  <node id='-1444099' timestamp='2012-12-29T13:59:04Z' visible='true' lat='41.4011504' lon='2.1487359' />
  <node id='-1444098' timestamp='2011-10-07T15:12:05Z' visible='true' lat='41.4011459' lon='2.1488574' />
  <node id='-1444097' timestamp='2011-10-07T15:11:56Z' visible='true' lat='41.4011333' lon='2.1489552' />
  <node id='-1444096' timestamp='2009-11-22T23:58:18Z' visible='true' lat='41.4010863' lon='2.1493202' />
  <node id='-1444095' timestamp='2011-10-07T15:12:06Z' visible='true' lat='41.4009541' lon='2.1499317' />
  <node id='-1444094' timestamp='2011-10-07T15:11:55Z' visible='true' lat='41.4008672' lon='2.1501912' />
  <node id='-1444093' timestamp='2011-10-07T15:11:56Z' visible='true' lat='41.4007847' lon='2.1504329' />
  <node id='-1444092' timestamp='2011-10-07T15:11:50Z' visible='true' lat='41.4007074' lon='2.1506178' />
  <node id='-1444091' timestamp='2011-10-07T15:11:56Z' visible='true' lat='41.4006524' lon='2.1507378' />
  <node id='-1444090' timestamp='2012-06-02T15:33:06Z' visible='true' lat='41.4006067' lon='2.1508389' />
  <node id='-1444089' timestamp='2012-06-02T15:33:06Z' visible='true' lat='41.4005882' lon='2.150891' />
  <node id='-1444088' timestamp='2013-07-04T12:15:23Z' visible='true' lat='41.3977839' lon='2.1328024'>
    <tag k='highway' v='traffic_signals' />
  </node>
  <node id='-1444087' timestamp='2012-05-31T22:51:55Z' visible='true' lat='41.3992815' lon='2.1245243' />
  <node id='-1444086' timestamp='2012-05-31T22:51:55Z' visible='true' lat='41.3988785' lon='2.1250724' />
  <node id='-1444085' timestamp='2014-09-11T17:46:57Z' visible='true' lat='41.3984448' lon='2.1422703' />
  <node id='-1444084' timestamp='2014-09-11T17:46:57Z' visible='true' lat='41.3986429' lon='2.14276' />
  <node id='-1444083' timestamp='2014-09-11T17:46:57Z' visible='true' lat='41.3988752' lon='2.1431993' />
  <node id='-1444082' timestamp='2014-09-11T17:46:57Z' visible='true' lat='41.3993182' lon='2.1439243' />
  <node id='-1444081' timestamp='2014-07-28T17:01:29Z' visible='true' lat='41.3977822' lon='2.1273892'>
    <tag k='highway' v='traffic_signals' />
  </node>
  <node id='-1444080' timestamp='2014-07-28T17:01:29Z' visible='true' lat='41.3977773' lon='2.1274646' />
  <node id='-1444079' timestamp='2014-09-22T19:19:22Z' visible='true' lat='41.3984229' lon='2.1532021' />
  <node id='-1444078' timestamp='2011-10-07T15:11:52Z' visible='true' lat='41.3988377' lon='2.1527976' />
  <node id='-1444077' timestamp='2011-10-07T15:12:06Z' visible='true' lat='41.3996496' lon='2.1520082' />
  <node id='-1444076' timestamp='2011-10-07T15:11:56Z' visible='true' lat='41.3999008' lon='2.1517803' />
  <node id='-1444075' timestamp='2011-10-07T15:11:53Z' visible='true' lat='41.4000826' lon='2.1515873' />
  <node id='-1444074' timestamp='2012-12-29T13:59:15Z' visible='true' lat='41.4002916' lon='2.1513371' />
  <node id='-1444073' timestamp='2012-06-02T15:33:05Z' visible='true' lat='41.4005328' lon='2.1509973' />
  <node id='-1444072' timestamp='2012-06-02T15:33:06Z' visible='true' lat='41.4005767' lon='2.1509713' />
  <node id='-1444071' timestamp='2013-07-04T12:15:23Z' visible='true' lat='41.3977684' lon='2.1329495'>
    <tag k='highway' v='traffic_signals' />
  </node>
  <node id='-1444070' timestamp='2012-11-25T21:38:46Z' visible='true' lat='41.3977743' lon='2.133965' />
  <node id='-1444069' timestamp='2010-04-10T22:36:24Z' visible='true' lat='41.397778' lon='2.1345963' />
  <node id='-1444068' timestamp='2011-01-23T10:50:58Z' visible='true' lat='41.3977824' lon='2.1353416' />
  <node id='-1444067' timestamp='2009-03-22T12:50:00Z' visible='true' lat='41.4012449' lon='2.1474319' />
  <node id='-1444066' timestamp='2011-10-07T15:12:05Z' visible='true' lat='41.4012308' lon='2.147577' />
  <node id='-1444065' timestamp='2011-10-07T15:12:06Z' visible='true' lat='41.4012553' lon='2.1478862' />
  <node id='-1444064' timestamp='2011-10-07T15:11:57Z' visible='true' lat='41.4012717' lon='2.1483671' />
  <node id='-1444063' timestamp='2011-10-07T15:12:06Z' visible='true' lat='41.4012717' lon='2.1485351' />
  <node id='-1444062' timestamp='2009-11-22T23:58:18Z' visible='true' lat='41.4012627' lon='2.1486586' />
  <node id='-1444061' timestamp='2011-07-27T16:35:31Z' visible='true' lat='41.401251' lon='2.1489827' />
  <node id='-1444060' timestamp='2011-07-27T16:35:31Z' visible='true' lat='41.4011767' lon='2.149502' />
  <node id='-1444059' timestamp='2011-10-07T15:12:06Z' visible='true' lat='41.40104' lon='2.1500551' />
  <node id='-1444058' timestamp='2011-10-07T15:11:48Z' visible='true' lat='41.4009884' lon='2.1502225' />
  <node id='-1444057' timestamp='2011-10-07T15:11:48Z' visible='true' lat='41.400924' lon='2.1503888' />
  <node id='-1444056' timestamp='2011-10-07T15:11:49Z' visible='true' lat='41.4008315' lon='2.1506059' />
  <node id='-1444055' timestamp='2011-10-07T15:11:52Z' visible='true' lat='41.4007228' lon='2.1508339' />
  <node id='-1444054' timestamp='2011-10-07T15:11:49Z' visible='true' lat='41.4006975' lon='2.1508852' />
  <node id='-1444053' timestamp='2011-12-06T13:53:35Z' visible='true' lat='41.40065' lon='2.1509809' />
  <node id='-1444052' timestamp='2012-05-25T21:01:05Z' visible='true' lat='41.3999051' lon='2.1447947' />
  <node id='-1444051' timestamp='2009-05-29T11:19:01Z' visible='true' lat='41.4003253' lon='2.1454446' />
  <node id='-1444050' timestamp='2012-02-01T08:24:41Z' visible='true' lat='41.4006967' lon='2.1460548' />
  <node id='-1444049' timestamp='2012-02-01T08:24:41Z' visible='true' lat='41.400988' lon='2.1467103' />
  <node id='-1444048' timestamp='2014-09-22T19:19:22Z' visible='true' lat='41.4010304' lon='2.146808' />
  <node id='-1444047' timestamp='2014-09-22T19:19:22Z' visible='true' lat='41.4010579' lon='2.1469104' />
  <way id='-1444046' timestamp='2014-07-23T20:09:51Z' visible='true'>
    <nd ref='-1444193' />
    <nd ref='-1444086' />
    <tag k='highway' v='primary' />
    <tag k='lit' v='yes' />
    <tag k='name' v='Via Augusta' />
    <tag k='oneway' v='yes' />
  </way>
  <way id='-1444045' timestamp='2013-12-13T23:01:58Z' visible='true'>
    <nd ref='-1444163' />
    <nd ref='-1444103' />
    <tag k='highway' v='secondary' />
    <tag k='name' v='Via Augusta' />
    <tag k='oneway' v='yes' />
    <tag k='wikipedia' v='ca:Via Augusta (Barcelona)' />
  </way>
  <way id='-1444044' timestamp='2014-05-26T08:52:16Z' visible='true'>
    <nd ref='-1444180' />
    <nd ref='-1444197' />
    <nd ref='-1444198' />
    <tag k='highway' v='secondary' />
    <tag k='name' v='Via Augusta' />
    <tag k='oneway' v='yes' />
  </way>
  <way id='-1444043' timestamp='2014-07-28T17:01:27Z' visible='true'>
    <nd ref='-1444119' />
    <nd ref='-1444194' />
    <nd ref='-1444195' />
    <nd ref='-1444196' />
    <nd ref='-1444080' />
    <tag k='highway' v='primary' />
    <tag k='lanes' v='5' />
    <tag k='lit' v='yes' />
    <tag k='name' v='Via Augusta' />
    <tag k='oneway' v='no' />
    <tag k='sidewalk' v='right' />
  </way>
  <way id='-1444042' timestamp='2014-07-31T17:51:03Z' visible='true'>
    <nd ref='-1444149' />
    <nd ref='-1444188' />
    <nd ref='-1444189' />
    <nd ref='-1444190' />
    <nd ref='-1444191' />
    <nd ref='-1444192' />
    <nd ref='-1444193' />
    <tag k='highway' v='primary' />
    <tag k='lit' v='yes' />
    <tag k='name' v='Via Augusta' />
    <tag k='oneway' v='yes' />
    <tag k='sidewalk' v='right' />
  </way>
  <way id='-1444041' timestamp='2014-07-31T17:51:03Z' visible='true'>
    <nd ref='-1444086' />
    <nd ref='-1444181' />
    <nd ref='-1444182' />
    <nd ref='-1444183' />
    <nd ref='-1444184' />
    <nd ref='-1444185' />
    <nd ref='-1444186' />
    <nd ref='-1444187' />
    <nd ref='-1444149' />
    <tag k='highway' v='primary' />
    <tag k='lit' v='yes' />
    <tag k='name' v='Via Augusta' />
    <tag k='oneway' v='yes' />
  </way>
  <way id='-1444040' timestamp='2014-06-17T11:40:01Z' visible='true'>
    <nd ref='-1444079' />
    <nd ref='-1444171' />
    <nd ref='-1444172' />
    <nd ref='-1444173' />
    <nd ref='-1444174' />
    <nd ref='-1444175' />
    <nd ref='-1444176' />
    <nd ref='-1444177' />
    <nd ref='-1444178' />
    <nd ref='-1444179' />
    <nd ref='-1444180' />
    <tag k='highway' v='secondary' />
    <tag k='name' v='Via Augusta' />
    <tag k='oneway' v='yes' />
  </way>
  <way id='-1444039' timestamp='2014-07-31T17:51:03Z' visible='true'>
    <nd ref='-1444141' />
    <nd ref='-1444170' />
    <nd ref='-1444125' />
    <tag k='highway' v='primary' />
    <tag k='lit' v='yes' />
    <tag k='name' v='Via Augusta' />
  </way>
  <way id='-1444038' timestamp='2014-07-31T16:29:41Z' visible='true'>
    <nd ref='-1444139' />
    <nd ref='-1444164' />
    <nd ref='-1444165' />
    <nd ref='-1444166' />
    <nd ref='-1444167' />
    <nd ref='-1444168' />
    <nd ref='-1444169' />
    <nd ref='-1444068' />
    <tag k='highway' v='primary' />
    <tag k='lit' v='yes' />
    <tag k='maxspeed' v='50' />
    <tag k='name' v='Via Augusta' />
    <tag k='oneway' v='no' />
    <tag k='sidewalk' v='both' />
  </way>
  <way id='-1444037' timestamp='2014-09-04T12:04:56Z' visible='true'>
    <nd ref='-1444124' />
    <nd ref='-1444159' />
    <nd ref='-1444160' />
    <nd ref='-1444161' />
    <nd ref='-1444162' />
    <nd ref='-1444163' />
    <tag k='highway' v='secondary' />
    <tag k='name' v='Via Augusta' />
    <tag k='oneway' v='yes' />
    <tag k='wikipedia' v='ca:Via Augusta (Barcelona)' />
  </way>
  <way id='-1444036' timestamp='2014-02-26T15:45:32Z' visible='true'>
    <nd ref='-1444150' />
    <nd ref='-1444151' />
    <nd ref='-1444152' />
    <nd ref='-1444153' />
    <nd ref='-1444154' />
    <nd ref='-1444155' />
    <nd ref='-1444156' />
    <nd ref='-1444157' />
    <nd ref='-1444158' />
    <nd ref='-1444106' />
    <tag k='highway' v='secondary' />
    <tag k='name' v='Via Augusta' />
    <tag k='oneway' v='yes' />
    <tag k='wikipedia' v='ca:Via Augusta (Barcelona)' />
  </way>
  <way id='-1444035' timestamp='2014-07-28T17:01:28Z' visible='true'>
    <nd ref='-1444081' />
    <nd ref='-1444143' />
    <nd ref='-1444144' />
    <nd ref='-1444145' />
    <nd ref='-1444146' />
    <nd ref='-1444147' />
    <nd ref='-1444148' />
    <nd ref='-1444149' />
    <tag k='highway' v='primary' />
    <tag k='lanes' v='6' />
    <tag k='lit' v='yes' />
    <tag k='name' v='Via Augusta' />
    <tag k='oneway' v='no' />
    <tag k='sidewalk' v='both' />
  </way>
  <way id='-1444034' timestamp='2014-09-22T19:19:23Z' visible='true'>
    <nd ref='-1444102' />
    <nd ref='-1444142' />
    <nd ref='-1444047' />
    <tag k='highway' v='primary' />
    <tag k='name' v='Via Augusta' />
    <tag k='oneway' v='no' />
  </way>
  <way id='-1444033' timestamp='2014-02-21T16:49:09Z' visible='true'>
    <nd ref='-1444052' />
    <nd ref='-1444082' />
    <tag k='highway' v='primary' />
    <tag k='maxspeed' v='50' />
    <tag k='name' v='Via Augusta' />
    <tag k='oneway' v='no' />
    <tag k='sidewalk' v='both' />
  </way>
  <way id='-1444032' timestamp='2014-07-23T20:09:51Z' visible='true'>
    <nd ref='-1444087' />
    <nd ref='-1444140' />
    <nd ref='-1444141' />
    <tag k='highway' v='primary' />
    <tag k='lit' v='yes' />
    <tag k='name' v='Via Augusta' />
  </way>
  <way id='-1444031' timestamp='2014-09-11T17:46:58Z' visible='true'>
    <nd ref='-1444085' />
    <nd ref='-1444134' />
    <nd ref='-1444135' />
    <nd ref='-1444136' />
    <nd ref='-1444137' />
    <nd ref='-1444138' />
    <nd ref='-1444139' />
    <tag k='highway' v='primary' />
    <tag k='lit' v='yes' />
    <tag k='maxspeed' v='50' />
    <tag k='name' v='Via Augusta' />
    <tag k='oneway' v='no' />
    <tag k='sidewalk' v='both' />
  </way>
  <way id='-1444030' timestamp='2014-07-31T17:51:03Z' visible='true'>
    <nd ref='-1444127' />
    <nd ref='-1444128' />
    <nd ref='-1444129' />
    <nd ref='-1444130' />
    <nd ref='-1444131' />
    <nd ref='-1444132' />
    <nd ref='-1444133' />
    <tag k='highway' v='motorway' />
    <tag k='int_ref' v='E 09' />
    <tag k='lit' v='yes' />
    <tag k='name' v='Via Augusta' />
    <tag k='oneway' v='no' />
    <tag k='ref' v='C-16' />
  </way>
  <way id='-1444029' timestamp='2014-07-31T17:51:03Z' visible='true'>
    <nd ref='-1444125' />
    <nd ref='-1444126' />
    <nd ref='-1444127' />
    <tag k='highway' v='motorway' />
    <tag k='int_ref' v='E 09' />
    <tag k='layer' v='-1' />
    <tag k='lit' v='yes' />
    <tag k='name' v='Via Augusta' />
    <tag k='oneway' v='no' />
    <tag k='ref' v='C-16' />
    <tag k='tunnel' v='yes' />
  </way>
  <way id='-1444028' timestamp='2014-09-04T12:04:56Z' visible='true'>
    <nd ref='-1444107' />
    <nd ref='-1444123' />
    <nd ref='-1444124' />
    <tag k='highway' v='secondary' />
    <tag k='name' v='Via Augusta' />
    <tag k='oneway' v='yes' />
    <tag k='wikipedia' v='ca:Via Augusta (Barcelona)' />
  </way>
  <way id='-1444027' timestamp='2014-06-12T08:04:33Z' visible='true'>
    <nd ref='-1444103' />
    <nd ref='-1444120' />
    <nd ref='-1444121' />
    <nd ref='-1444122' />
    <nd ref='-1444072' />
    <tag k='highway' v='secondary' />
    <tag k='name' v='Via Augusta' />
    <tag k='oneway' v='yes' />
    <tag k='wikipedia' v='ca:Via Augusta (Barcelona)' />
  </way>
  <way id='-1444026' timestamp='2014-07-28T17:01:27Z' visible='true'>
    <nd ref='-1444088' />
    <nd ref='-1444108' />
    <nd ref='-1444109' />
    <nd ref='-1444110' />
    <nd ref='-1444111' />
    <nd ref='-1444112' />
    <nd ref='-1444113' />
    <nd ref='-1444114' />
    <nd ref='-1444115' />
    <nd ref='-1444116' />
    <nd ref='-1444117' />
    <nd ref='-1444118' />
    <nd ref='-1444119' />
    <tag k='highway' v='primary' />
    <tag k='lit' v='yes' />
    <tag k='maxspeed' v='50' />
    <tag k='name' v='Via Augusta' />
    <tag k='oneway' v='no' />
    <tag k='sidewalk' v='both' />
    <tag k='surface' v='asphalt' />
  </way>
  <way id='-1444025' timestamp='2014-06-17T11:40:03Z' visible='true'>
    <nd ref='-1444106' />
    <nd ref='-1444107' />
    <tag k='highway' v='secondary' />
    <tag k='name' v='Via Augusta' />
    <tag k='oneway' v='yes' />
    <tag k='wikipedia' v='ca:Via Augusta (Barcelona)' />
  </way>
  <way id='-1444024' timestamp='2014-06-12T08:04:33Z' visible='true'>
    <nd ref='-1444103' />
    <nd ref='-1444104' />
    <nd ref='-1444105' />
    <nd ref='-1444053' />
    <tag k='highway' v='tertiary' />
    <tag k='name' v='Via Augusta' />
    <tag k='oneway' v='yes' />
  </way>
  <way id='-1444023' timestamp='2014-06-12T08:04:31Z' visible='true'>
    <nd ref='-1444072' />
    <nd ref='-1444089' />
    <nd ref='-1444090' />
    <nd ref='-1444091' />
    <nd ref='-1444092' />
    <nd ref='-1444093' />
    <nd ref='-1444094' />
    <nd ref='-1444095' />
    <nd ref='-1444096' />
    <nd ref='-1444097' />
    <nd ref='-1444098' />
    <nd ref='-1444099' />
    <nd ref='-1444100' />
    <nd ref='-1444101' />
    <nd ref='-1444102' />
    <tag k='highway' v='secondary' />
    <tag k='name' v='Via Augusta' />
    <tag k='oneway' v='yes' />
    <tag k='wikipedia' v='ca:Via Augusta (Barcelona)' />
  </way>
  <way id='-1444022' timestamp='2014-07-26T11:07:27Z' visible='true'>
    <nd ref='-1444071' />
    <nd ref='-1444088' />
    <tag k='highway' v='primary' />
    <tag k='lit' v='yes' />
    <tag k='maxspeed' v='50' />
    <tag k='name' v='Via Augusta' />
    <tag k='oneway' v='no' />
    <tag k='sidewalk' v='both' />
  </way>
  <way id='-1444021' timestamp='2014-07-23T20:09:50Z' visible='true'>
    <nd ref='-1444086' />
    <nd ref='-1444087' />
    <tag k='highway' v='primary' />
    <tag k='lit' v='yes' />
    <tag k='name' v='Via Augusta' />
  </way>
  <way id='-1444020' timestamp='2014-02-21T16:49:05Z' visible='true'>
    <nd ref='-1444082' />
    <nd ref='-1444083' />
    <nd ref='-1444084' />
    <nd ref='-1444085' />
    <tag k='highway' v='primary' />
    <tag k='maxspeed' v='50' />
    <tag k='name' v='Via Augusta' />
    <tag k='oneway' v='no' />
    <tag k='sidewalk' v='both' />
  </way>
  <way id='-1444019' timestamp='2014-07-28T17:01:27Z' visible='true'>
    <nd ref='-1444080' />
    <nd ref='-1444081' />
    <tag k='highway' v='primary' />
    <tag k='lanes' v='5' />
    <tag k='lit' v='yes' />
    <tag k='name' v='Via Augusta' />
    <tag k='oneway' v='no' />
    <tag k='sidewalk' v='right' />
  </way>
  <way id='-1444018' timestamp='2014-06-17T11:40:03Z' visible='true'>
    <nd ref='-1444072' />
    <nd ref='-1444073' />
    <nd ref='-1444074' />
    <nd ref='-1444075' />
    <nd ref='-1444076' />
    <nd ref='-1444077' />
    <nd ref='-1444078' />
    <nd ref='-1444079' />
    <tag k='highway' v='secondary' />
    <tag k='name' v='Via Augusta' />
    <tag k='oneway' v='yes' />
  </way>
  <way id='-1444017' timestamp='2014-07-31T16:30:16Z' visible='true'>
    <nd ref='-1444068' />
    <nd ref='-1444069' />
    <nd ref='-1444070' />
    <nd ref='-1444071' />
    <tag k='highway' v='primary' />
    <tag k='lit' v='yes' />
    <tag k='maxspeed' v='50' />
    <tag k='name' v='Via Augusta' />
    <tag k='oneway' v='no' />
    <tag k='sidewalk' v='both' />
  </way>
  <way id='-1444016' timestamp='2014-06-12T08:04:31Z' visible='true'>
    <nd ref='-1444053' />
    <nd ref='-1444054' />
    <nd ref='-1444055' />
    <nd ref='-1444056' />
    <nd ref='-1444057' />
    <nd ref='-1444058' />
    <nd ref='-1444059' />
    <nd ref='-1444060' />
    <nd ref='-1444061' />
    <nd ref='-1444062' />
    <nd ref='-1444063' />
    <nd ref='-1444064' />
    <nd ref='-1444065' />
    <nd ref='-1444066' />
    <nd ref='-1444067' />
    <tag k='highway' v='tertiary' />
    <tag k='name' v='Via Augusta' />
    <tag k='oneway' v='yes' />
  </way>
  <way id='-1444015' timestamp='2014-09-22T19:19:23Z' visible='true'>
    <nd ref='-1444047' />
    <nd ref='-1444048' />
    <nd ref='-1444049' />
    <nd ref='-1444050' />
    <nd ref='-1444051' />
    <nd ref='-1444052' />
    <tag k='highway' v='primary' />
    <tag k='maxspeed' v='50' />
    <tag k='name' v='Via Augusta' />
    <tag k='oneway' v='no' />
    <tag k='sidewalk' v='both' />
  </way>
</osm>
